EESchema Schematic File Version 2
LIBS:power
LIBS:device
LIBS:transistors
LIBS:conn
LIBS:linear
LIBS:regul
LIBS:74xx
LIBS:cmos4000
LIBS:adc-dac
LIBS:memory
LIBS:xilinx
LIBS:microcontrollers
LIBS:dsp
LIBS:microchip
LIBS:analog_switches
LIBS:motorola
LIBS:texas
LIBS:intel
LIBS:audio
LIBS:interface
LIBS:digital-audio
LIBS:philips
LIBS:display
LIBS:cypress
LIBS:siliconi
LIBS:opto
LIBS:atmel
LIBS:contrib
LIBS:valves
LIBS:DAC
LIBS:DAC-cache
EELAYER 25 0
EELAYER END
$Descr A4 11693 8268
encoding utf-8
Sheet 1 2
Title ""
Date ""
Rev ""
Comp ""
Comment1 ""
Comment2 ""
Comment3 ""
Comment4 ""
$EndDescr
$Comp
L R R5
U 1 1 5A9C29F9
P 4500 2000
F 0 "R5" V 4580 2000 50  0000 C CNN
F 1 "22" V 4500 2000 50  0000 C CNN
F 2 "DAC:R_0805_HandSoldering" V 4430 2000 50  0001 C CNN
F 3 "" H 4500 2000 50  0000 C CNN
	1    4500 2000
	0    1    1    0   
$EndComp
$Comp
L R R6
U 1 1 5A9C2A21
P 4500 2250
F 0 "R6" V 4580 2250 50  0000 C CNN
F 1 "22" V 4500 2250 50  0000 C CNN
F 2 "DAC:R_0805_HandSoldering" V 4430 2250 50  0001 C CNN
F 3 "" H 4500 2250 50  0000 C CNN
	1    4500 2250
	0    1    1    0   
$EndComp
$Comp
L GND #PWR01
U 1 1 5A9C2ACE
P 1750 2700
F 0 "#PWR01" H 1750 2450 50  0001 C CNN
F 1 "GND" H 1750 2550 50  0000 C CNN
F 2 "" H 1750 2700 50  0000 C CNN
F 3 "" H 1750 2700 50  0000 C CNN
	1    1750 2700
	1    0    0    -1  
$EndComp
$Comp
L R R2
U 1 1 5A9C2AFF
P 3350 2500
F 0 "R2" V 3430 2500 50  0000 C CNN
F 1 "2.2" V 3350 2500 50  0000 C CNN
F 2 "DAC:R_0805_HandSoldering" V 3280 2500 50  0001 C CNN
F 3 "" H 3350 2500 50  0000 C CNN
	1    3350 2500
	0    1    1    0   
$EndComp
$Comp
L C C2
U 1 1 5A9C2B3D
P 3650 2650
F 0 "C2" H 3675 2750 50  0000 L CNN
F 1 "1u" H 3675 2550 50  0000 L CNN
F 2 "DAC:C_0805_HandSoldering" H 3688 2500 50  0001 C CNN
F 3 "" H 3650 2650 50  0000 C CNN
	1    3650 2650
	1    0    0    -1  
$EndComp
$Comp
L GND #PWR02
U 1 1 5A9C2B6A
P 3650 2850
F 0 "#PWR02" H 3650 2600 50  0001 C CNN
F 1 "GND" H 3650 2700 50  0000 C CNN
F 2 "" H 3650 2850 50  0000 C CNN
F 3 "" H 3650 2850 50  0000 C CNN
	1    3650 2850
	1    0    0    -1  
$EndComp
$Comp
L GND #PWR03
U 1 1 5A9C2C58
P 4400 3300
F 0 "#PWR03" H 4400 3050 50  0001 C CNN
F 1 "GND" H 4400 3150 50  0000 C CNN
F 2 "" H 4400 3300 50  0000 C CNN
F 3 "" H 4400 3300 50  0000 C CNN
	1    4400 3300
	1    0    0    -1  
$EndComp
Text Label 2000 2950 0    60   ~ 0
D+
Text Label 2000 3050 0    60   ~ 0
D-
Text Label 2000 3150 0    60   ~ 0
VBUS
$Comp
L R R4
U 1 1 5A9C38F0
P 4150 1700
F 0 "R4" V 4230 1700 50  0000 C CNN
F 1 "1.5k" V 4150 1700 50  0000 C CNN
F 2 "DAC:R_0805_HandSoldering" V 4080 1700 50  0001 C CNN
F 3 "" H 4150 1700 50  0000 C CNN
	1    4150 1700
	1    0    0    -1  
$EndComp
$Comp
L C C8
U 1 1 5A9C3B10
P 7100 2250
F 0 "C8" H 7125 2350 50  0000 L CNN
F 1 "1u" H 7125 2150 50  0000 L CNN
F 2 "DAC:C_0805_HandSoldering" H 7138 2100 50  0001 C CNN
F 3 "" H 7100 2250 50  0000 C CNN
	1    7100 2250
	0    1    1    0   
$EndComp
Text Label 2800 2000 0    60   ~ 0
D+
Text Label 2800 2250 0    60   ~ 0
D-
Text Label 2800 2500 0    60   ~ 0
VBUS
$Comp
L C C1
U 1 1 5AA577EB
P 2600 4250
F 0 "C1" H 2625 4350 50  0000 L CNN
F 1 "1u" H 2625 4150 50  0000 L CNN
F 2 "DAC:C_0805_HandSoldering" H 2638 4100 50  0001 C CNN
F 3 "" H 2600 4250 50  0000 C CNN
	1    2600 4250
	1    0    0    -1  
$EndComp
$Comp
L GND #PWR04
U 1 1 5AA5794E
P 2600 4450
F 0 "#PWR04" H 2600 4200 50  0001 C CNN
F 1 "GND" H 2600 4300 50  0000 C CNN
F 2 "" H 2600 4450 50  0000 C CNN
F 3 "" H 2600 4450 50  0000 C CNN
	1    2600 4450
	1    0    0    -1  
$EndComp
$Comp
L D_Schottky D1
U 1 1 5AA57A7F
P 3950 4250
F 0 "D1" H 3950 4350 50  0000 C CNN
F 1 "D" H 3950 4150 50  0000 C CNN
F 2 "Diodes_SMD:D_SOD-123" H 3950 4250 50  0001 C CNN
F 3 "" H 3950 4250 50  0000 C CNN
	1    3950 4250
	-1   0    0    1   
$EndComp
$Comp
L C_Small C3
U 1 1 5AA57D0D
P 4500 4400
F 0 "C3" H 4510 4470 50  0000 L CNN
F 1 "10u" H 4510 4320 50  0000 L CNN
F 2 "DAC:C_0805_HandSoldering" H 4500 4400 50  0001 C CNN
F 3 "" H 4500 4400 50  0000 C CNN
	1    4500 4400
	0    -1   -1   0   
$EndComp
$Comp
L R R1
U 1 1 5AA58150
P 3250 4800
F 0 "R1" V 3330 4800 50  0000 C CNN
F 1 "27k" V 3250 4800 50  0000 C CNN
F 2 "DAC:R_0805_HandSoldering" V 3180 4800 50  0001 C CNN
F 3 "" H 3250 4800 50  0000 C CNN
	1    3250 4800
	0    1    1    0   
$EndComp
$Comp
L R R3
U 1 1 5AA581BD
P 3650 4800
F 0 "R3" V 3730 4800 50  0000 C CNN
F 1 "13k" V 3650 4800 50  0000 C CNN
F 2 "DAC:R_0805_HandSoldering" V 3580 4800 50  0001 C CNN
F 3 "" H 3650 4800 50  0000 C CNN
	1    3650 4800
	0    1    1    0   
$EndComp
$Comp
L C C4
U 1 1 5AA58517
P 4550 5250
F 0 "C4" H 4575 5350 50  0000 L CNN
F 1 "10u" H 4575 5150 50  0000 L CNN
F 2 "DAC:C_0805_HandSoldering" H 4588 5100 50  0001 C CNN
F 3 "" H 4550 5250 50  0000 C CNN
	1    4550 5250
	0    1    1    0   
$EndComp
NoConn ~ 6600 2750
$Comp
L GND #PWR05
U 1 1 5AA5A102
P 7750 4550
F 0 "#PWR05" H 7750 4300 50  0001 C CNN
F 1 "GND" H 7750 4400 50  0000 C CNN
F 2 "" H 7750 4550 50  0000 C CNN
F 3 "" H 7750 4550 50  0000 C CNN
	1    7750 4550
	1    0    0    -1  
$EndComp
$Comp
L C C6
U 1 1 5AA5A19B
P 6850 4750
F 0 "C6" H 6875 4850 50  0000 L CNN
F 1 "1u" H 6875 4650 50  0000 L CNN
F 2 "DAC:C_0805_HandSoldering" H 6888 4600 50  0001 C CNN
F 3 "" H 6850 4750 50  0000 C CNN
	1    6850 4750
	0    1    1    0   
$EndComp
$Comp
L C C5
U 1 1 5AA5A23E
P 6850 4250
F 0 "C5" H 6875 4350 50  0000 L CNN
F 1 "1u" H 6875 4150 50  0000 L CNN
F 2 "DAC:C_0805_HandSoldering" H 6888 4100 50  0001 C CNN
F 3 "" H 6850 4250 50  0000 C CNN
	1    6850 4250
	0    1    1    0   
$EndComp
$Comp
L Crystal_Small Y1
U 1 1 5AA5A533
P 7250 3850
F 0 "Y1" H 7250 3950 50  0000 C CNN
F 1 "12Mhz" H 7250 3750 50  0000 C CNN
F 2 "Crystals:Crystal_SMD_5032-2pin_5.0x3.2mm" H 7250 3850 50  0001 C CNN
F 3 "" H 7250 3850 50  0000 C CNN
	1    7250 3850
	0    1    1    0   
$EndComp
$Comp
L C_Small C9
U 1 1 5AA5A6CC
P 7550 3750
F 0 "C9" H 7560 3820 50  0000 L CNN
F 1 "10p" H 7560 3670 50  0000 L CNN
F 2 "DAC:C_0805_HandSoldering" H 7550 3750 50  0001 C CNN
F 3 "" H 7550 3750 50  0000 C CNN
	1    7550 3750
	0    1    1    0   
$EndComp
$Comp
L C_Small C10
U 1 1 5AA5A75C
P 7550 4000
F 0 "C10" H 7560 4070 50  0000 L CNN
F 1 "10p" H 7560 3920 50  0000 L CNN
F 2 "DAC:C_0805_HandSoldering" H 7550 4000 50  0001 C CNN
F 3 "" H 7550 4000 50  0000 C CNN
	1    7550 4000
	0    1    1    0   
$EndComp
$Comp
L R R7
U 1 1 5AA5AD84
P 6850 3850
F 0 "R7" V 6930 3850 50  0000 C CNN
F 1 "1M" V 6850 3850 50  0000 C CNN
F 2 "DAC:R_0805_HandSoldering" V 6780 3850 50  0001 C CNN
F 3 "" H 6850 3850 50  0000 C CNN
	1    6850 3850
	0    1    1    0   
$EndComp
$Comp
L C C7
U 1 1 5AA5B039
P 7000 3250
F 0 "C7" H 7025 3350 50  0000 L CNN
F 1 "1u" H 7025 3150 50  0000 L CNN
F 2 "DAC:C_0805_HandSoldering" H 7038 3100 50  0001 C CNN
F 3 "" H 7000 3250 50  0000 C CNN
	1    7000 3250
	0    1    1    0   
$EndComp
$Comp
L PCM2904 U2
U 1 1 5AABCCFF
P 5800 3500
F 0 "U2" H 5800 5200 60  0000 C CNN
F 1 "PCM2904" H 6250 3150 60  0000 C CNN
F 2 "Housings_SSOP:SSOP-28_5.3x10.2mm_Pitch0.65mm" H 5850 2100 60  0001 C CNN
F 3 "" H 5850 2100 60  0001 C CNN
	1    5800 3500
	1    0    0    -1  
$EndComp
$Comp
L REG103xA-A U1
U 1 1 5AABCD88
P 3250 3850
F 0 "U1" H 2800 4100 60  0000 C CNN
F 1 "REG103xA-A" H 3400 4100 60  0000 C CNN
F 2 "TO_SOT_Packages_SMD:SOT-223-6_TabPin3" H 3250 3850 60  0001 C CNN
F 3 "" H 3250 3850 60  0001 C CNN
	1    3250 3850
	1    0    0    -1  
$EndComp
$Sheet
S 2050 5800 1500 1200
U 5AABD37E
F0 "InOutAmps" 60
F1 "InOutAmps.sch" 60
F2 "PRE_LEFT_OUT" I R 3550 6800 60 
F3 "PRE_RIGHT_OUT" I R 3550 6650 60 
F4 "LEFT_OUT" I L 2050 6900 60 
F5 "RIGHT_OUT" I L 2050 6800 60 
F6 "V3.x" I L 2050 5950 60 
F7 "VCOM" I R 3550 5950 60 
F8 "LEFT_IN" I L 2050 6200 60 
F9 "RIGHT_IN" I L 2050 6100 60 
F10 "POST_LEFT_IN" I R 3550 6400 60 
F11 "POST_RIGHT_IN" I R 3550 6250 60 
$EndSheet
Text Label 4450 4250 0    60   ~ 0
V3.x
Text Label 1750 5950 0    60   ~ 0
VReg
$Comp
L 3.5mm_Jack P1
U 1 1 5AAC2322
P 1000 6200
F 0 "P1" H 1000 6450 60  0000 C CNN
F 1 "3.5mm_Jack" H 1000 5900 60  0000 C CNN
F 2 "DAC:SwitchCraft_3.5mm_Stereo" H 1350 5850 60  0001 C CNN
F 3 "" H 1350 5850 60  0001 C CNN
	1    1000 6200
	1    0    0    -1  
$EndComp
$Comp
L 3.5mm_Jack P2
U 1 1 5AAC23E6
P 1000 6950
F 0 "P2" H 1000 7200 60  0000 C CNN
F 1 "3.5mm_Jack" H 1000 6650 60  0000 C CNN
F 2 "DAC:SwitchCraft_3.5mm_Stereo" H 1350 6600 60  0001 C CNN
F 3 "" H 1350 6600 60  0001 C CNN
	1    1000 6950
	1    0    0    -1  
$EndComp
NoConn ~ 1350 6850
NoConn ~ 1350 6950
Text Label 4800 5650 0    60   ~ 0
VCOM
$Comp
L GND #PWR06
U 1 1 5AAC2E54
P 1750 7200
F 0 "#PWR06" H 1750 6950 50  0001 C CNN
F 1 "GND" H 1750 7050 50  0000 C CNN
F 2 "" H 1750 7200 50  0000 C CNN
F 3 "" H 1750 7200 50  0000 C CNN
	1    1750 7200
	1    0    0    -1  
$EndComp
$Comp
L GND #PWR07
U 1 1 5AAC2F8E
P 1750 6450
F 0 "#PWR07" H 1750 6200 50  0001 C CNN
F 1 "GND" H 1750 6300 50  0000 C CNN
F 2 "" H 1750 6450 50  0000 C CNN
F 3 "" H 1750 6450 50  0000 C CNN
	1    1750 6450
	1    0    0    -1  
$EndComp
NoConn ~ 1350 6100
NoConn ~ 1350 6200
$Comp
L USB_OTG P3
U 1 1 5AAFB9BC
P 1300 2950
F 0 "P3" H 1625 2825 50  0000 C CNN
F 1 "USB_OTG" H 1300 3150 50  0000 C CNN
F 2 "Connectors:USB_Micro-B" V 1250 2850 50  0001 C CNN
F 3 "" V 1250 2850 50  0000 C CNN
	1    1300 2950
	0    -1   -1   0   
$EndComp
NoConn ~ 1600 2850
$Comp
L GND #PWR08
U 1 1 5AA58770
P 3850 5350
F 0 "#PWR08" H 3850 5100 50  0001 C CNN
F 1 "GND" H 3850 5200 50  0000 C CNN
F 2 "" H 3850 5350 50  0000 C CNN
F 3 "" H 3850 5350 50  0000 C CNN
	1    3850 5350
	1    0    0    -1  
$EndComp
Text Label 3500 4250 0    60   ~ 0
VReg
Wire Wire Line
	2800 2000 4350 2000
Wire Wire Line
	4350 2250 2800 2250
Wire Wire Line
	4650 2250 4900 2250
Wire Wire Line
	1600 2700 1750 2700
Wire Wire Line
	2800 2500 3200 2500
Wire Wire Line
	3500 2500 4900 2500
Connection ~ 3650 2500
Wire Wire Line
	4900 2750 3850 2750
Wire Wire Line
	3850 2750 3850 2850
Wire Wire Line
	3850 2850 3650 2850
Wire Wire Line
	4600 3000 4900 3000
Wire Wire Line
	4400 3250 4900 3250
Wire Wire Line
	4600 3000 4600 3500
Wire Wire Line
	4600 3500 4900 3500
Connection ~ 4600 3250
Wire Wire Line
	4400 3250 4400 3300
Wire Wire Line
	4800 1100 4800 4000
Wire Wire Line
	1600 2950 2000 2950
Wire Wire Line
	1600 3050 2000 3050
Wire Wire Line
	1600 3150 2000 3150
Wire Wire Line
	4150 2000 4150 1850
Connection ~ 4150 2000
Wire Wire Line
	4150 1550 4150 1100
Wire Wire Line
	4150 1100 6800 1100
Wire Wire Line
	6800 1100 6800 2250
Wire Wire Line
	6600 2250 6950 2250
Connection ~ 4800 1100
Wire Wire Line
	7250 2250 7750 2250
Wire Wire Line
	7750 2500 6600 2500
Wire Wire Line
	4650 2000 4900 2000
Wire Wire Line
	3650 2850 3650 2800
Wire Wire Line
	4800 4000 4900 4000
Wire Wire Line
	4900 3750 4800 3750
Connection ~ 4800 3750
Wire Wire Line
	3100 2500 3100 3350
Wire Wire Line
	2600 3350 3950 3350
Wire Wire Line
	2600 3350 2600 4100
Connection ~ 3100 2500
Wire Wire Line
	2600 4400 2600 4450
Wire Wire Line
	2600 4050 2850 4050
Connection ~ 2600 4050
Wire Wire Line
	3050 4250 3800 4250
Wire Wire Line
	4100 4250 4900 4250
Wire Wire Line
	3250 4050 3250 4500
Wire Wire Line
	3250 4500 4900 4500
Wire Wire Line
	4700 4500 4700 4400
Wire Wire Line
	4700 4400 4600 4400
Connection ~ 4700 4500
Wire Wire Line
	4400 4400 4250 4400
Wire Wire Line
	4250 4400 4250 4250
Connection ~ 4250 4250
Connection ~ 3050 4250
Wire Wire Line
	3450 4050 3450 4800
Wire Wire Line
	3650 4050 3950 4050
Wire Wire Line
	3950 4050 3950 3350
Connection ~ 3100 3350
Wire Wire Line
	3050 4800 3100 4800
Connection ~ 3050 4800
Wire Wire Line
	3400 4800 3500 4800
Connection ~ 3450 4800
Wire Wire Line
	3850 4500 3850 5350
Wire Wire Line
	3850 4800 3800 4800
Connection ~ 3850 4500
Wire Wire Line
	3850 5250 4400 5250
Connection ~ 3850 4800
Wire Wire Line
	4700 5250 4900 5250
Connection ~ 3850 5250
Wire Wire Line
	3050 4050 3050 4800
Connection ~ 6800 2250
Connection ~ 7750 2500
Wire Wire Line
	6600 4750 6700 4750
Wire Wire Line
	6600 4500 7150 4500
Wire Wire Line
	7150 4250 7150 4750
Wire Wire Line
	7150 4750 7000 4750
Wire Wire Line
	6700 4250 6600 4250
Wire Wire Line
	7000 4250 7750 4250
Connection ~ 7150 4500
Connection ~ 7750 4250
Connection ~ 7150 4250
Wire Wire Line
	7650 3750 7750 3750
Connection ~ 7750 3750
Wire Wire Line
	7650 4000 7750 4000
Connection ~ 7750 4000
Wire Wire Line
	6600 3750 7450 3750
Connection ~ 7250 3750
Wire Wire Line
	6600 4000 7450 4000
Wire Wire Line
	7250 4000 7250 3950
Connection ~ 7250 4000
Wire Wire Line
	7000 3850 7000 3750
Connection ~ 7000 3750
Wire Wire Line
	6700 3850 6700 4000
Connection ~ 6700 4000
Wire Wire Line
	6600 3500 7750 3500
Connection ~ 7750 3500
Wire Wire Line
	6600 3250 6850 3250
Wire Wire Line
	7150 3250 7750 3250
Connection ~ 7750 3250
Wire Wire Line
	6600 3000 7750 3000
Connection ~ 7750 3000
Wire Wire Line
	6600 2000 6800 2000
Connection ~ 6800 2000
Wire Wire Line
	1200 2550 1600 2550
Connection ~ 1600 2700
Wire Wire Line
	4900 4750 4150 4750
Wire Wire Line
	4150 4750 4150 6400
Wire Wire Line
	4150 6400 3550 6400
Wire Wire Line
	4900 5000 4250 5000
Wire Wire Line
	4250 5000 4250 6250
Wire Wire Line
	4250 6250 3550 6250
Wire Wire Line
	4800 5250 4800 5950
Wire Wire Line
	4800 5950 3550 5950
Connection ~ 4800 5250
Wire Wire Line
	1750 5950 2050 5950
Wire Wire Line
	6600 5000 6900 5000
Wire Wire Line
	6900 5000 6900 6650
Wire Wire Line
	6900 6650 3550 6650
Wire Wire Line
	3550 6800 6700 6800
Wire Wire Line
	6600 5250 6700 5250
Wire Wire Line
	6700 5250 6700 6800
Wire Wire Line
	1350 7150 1750 7150
Wire Wire Line
	1350 6400 1750 6400
Wire Wire Line
	1750 6400 1750 6450
Wire Wire Line
	1750 7150 1750 7200
Wire Wire Line
	1600 2550 1600 2750
Wire Wire Line
	1350 7050 1800 7050
Wire Wire Line
	1350 6750 1800 6750
Wire Wire Line
	1350 6000 1750 6000
Wire Wire Line
	1750 6000 1750 6100
Wire Wire Line
	1750 6100 2050 6100
Wire Wire Line
	2050 6200 1750 6200
Wire Wire Line
	1750 6200 1750 6300
Wire Wire Line
	1750 6300 1350 6300
Wire Wire Line
	2050 6800 1800 6800
Wire Wire Line
	1800 6800 1800 6750
Wire Wire Line
	1800 7050 1800 6900
Wire Wire Line
	1800 6900 2050 6900
Wire Wire Line
	7750 2250 7750 4550
$Comp
L R R24
U 1 1 5AB23D56
P 1650 3800
F 0 "R24" V 1730 3800 50  0000 C CNN
F 1 "100" V 1650 3800 50  0000 C CNN
F 2 "DAC:R_0805_HandSoldering" V 1580 3800 50  0001 C CNN
F 3 "" H 1650 3800 50  0000 C CNN
	1    1650 3800
	1    0    0    -1  
$EndComp
$Comp
L LED D2
U 1 1 5AB23F04
P 1650 3400
F 0 "D2" H 1650 3500 50  0000 C CNN
F 1 "LED" H 1650 3300 50  0000 C CNN
F 2 "DAC:MyLED_D5.0mm" H 1650 3400 50  0001 C CNN
F 3 "" H 1650 3400 50  0000 C CNN
	1    1650 3400
	0    -1   -1   0   
$EndComp
Wire Wire Line
	1650 3150 1650 3200
Connection ~ 1650 3150
Wire Wire Line
	1650 3600 1650 3650
Wire Wire Line
	1650 3950 1650 4050
$Comp
L GND #PWR09
U 1 1 5AB243DD
P 1650 4050
F 0 "#PWR09" H 1650 3800 50  0001 C CNN
F 1 "GND" H 1650 3900 50  0000 C CNN
F 2 "" H 1650 4050 50  0000 C CNN
F 3 "" H 1650 4050 50  0000 C CNN
	1    1650 4050
	1    0    0    -1  
$EndComp
$EndSCHEMATC
