EESchema Schematic File Version 2
LIBS:power
LIBS:device
LIBS:transistors
LIBS:conn
LIBS:linear
LIBS:regul
LIBS:74xx
LIBS:cmos4000
LIBS:adc-dac
LIBS:memory
LIBS:xilinx
LIBS:microcontrollers
LIBS:dsp
LIBS:microchip
LIBS:analog_switches
LIBS:motorola
LIBS:texas
LIBS:intel
LIBS:audio
LIBS:interface
LIBS:digital-audio
LIBS:philips
LIBS:display
LIBS:cypress
LIBS:siliconi
LIBS:opto
LIBS:atmel
LIBS:contrib
LIBS:valves
LIBS:DAC
LIBS:DAC-cache
EELAYER 25 0
EELAYER END
$Descr A4 11693 8268
encoding utf-8
Sheet 2 2
Title ""
Date ""
Rev ""
Comp ""
Comment1 ""
Comment2 ""
Comment3 ""
Comment4 ""
$EndDescr
$Comp
L OPA2353 U3
U 1 1 5AABD3E1
P 3350 1850
F 0 "U3" H 3500 2100 60  0000 C CNN
F 1 "OPA2353" H 3750 1700 60  0000 C CNN
F 2 "Housings_SOIC:SOIC-8_3.9x4.9mm_Pitch1.27mm" H 2900 1850 60  0001 C CNN
F 3 "" H 2900 1850 60  0001 C CNN
	1    3350 1850
	1    0    0    1   
$EndComp
$Comp
L C C11
U 1 1 5AABD495
P 1700 1650
F 0 "C11" H 1725 1750 50  0000 L CNN
F 1 "10u" H 1725 1550 50  0000 L CNN
F 2 "DAC:C_0805_HandSoldering" H 1738 1500 50  0001 C CNN
F 3 "" H 1700 1650 50  0000 C CNN
	1    1700 1650
	0    -1   -1   0   
$EndComp
$Comp
L R R8
U 1 1 5AABD4CA
P 2100 1650
F 0 "R8" V 2180 1650 50  0000 C CNN
F 1 "12k" V 2100 1650 50  0000 C CNN
F 2 "DAC:R_0805_HandSoldering" V 2030 1650 50  0001 C CNN
F 3 "" H 2100 1650 50  0000 C CNN
	1    2100 1650
	0    1    1    0   
$EndComp
$Comp
L R R10
U 1 1 5AABD4FF
P 2550 1650
F 0 "R10" V 2630 1650 50  0000 C CNN
F 1 "3.9k" V 2550 1650 50  0000 C CNN
F 2 "DAC:R_0805_HandSoldering" V 2480 1650 50  0001 C CNN
F 3 "" H 2550 1650 50  0000 C CNN
	1    2550 1650
	0    1    1    0   
$EndComp
$Comp
L C C13
U 1 1 5AABD571
P 2350 2000
F 0 "C13" H 2375 2100 50  0000 L CNN
F 1 "1.8n" H 2375 1900 50  0000 L CNN
F 2 "DAC:C_0805_HandSoldering" H 2388 1850 50  0001 C CNN
F 3 "" H 2350 2000 50  0000 C CNN
	1    2350 2000
	1    0    0    -1  
$EndComp
$Comp
L C C15
U 1 1 5AABD5DE
P 3400 1150
F 0 "C15" H 3425 1250 50  0000 L CNN
F 1 "330p" H 3425 1050 50  0000 L CNN
F 2 "DAC:C_0805_HandSoldering" H 3438 1000 50  0001 C CNN
F 3 "" H 3400 1150 50  0000 C CNN
	1    3400 1150
	0    1    1    0   
$EndComp
$Comp
L R R12
U 1 1 5AABD60B
P 3400 800
F 0 "R12" V 3480 800 50  0000 C CNN
F 1 "12k" V 3400 800 50  0000 C CNN
F 2 "DAC:R_0805_HandSoldering" V 3330 800 50  0001 C CNN
F 3 "" H 3400 800 50  0000 C CNN
	1    3400 800 
	0    1    1    0   
$EndComp
$Comp
L R R14
U 1 1 5AABD642
P 4450 1850
F 0 "R14" V 4530 1850 50  0000 C CNN
F 1 "100" V 4450 1850 50  0000 C CNN
F 2 "DAC:R_0805_HandSoldering" V 4380 1850 50  0001 C CNN
F 3 "" H 4450 1850 50  0000 C CNN
	1    4450 1850
	0    1    1    0   
$EndComp
$Comp
L C C19
U 1 1 5AABD6BE
P 5050 1850
F 0 "C19" H 5075 1950 50  0000 L CNN
F 1 "10u" H 5075 1750 50  0000 L CNN
F 2 "DAC:C_0805_HandSoldering" H 5088 1700 50  0001 C CNN
F 3 "" H 5050 1850 50  0000 C CNN
	1    5050 1850
	0    -1   -1   0   
$EndComp
$Comp
L GND #PWR010
U 1 1 5AABD84F
P 2350 2250
F 0 "#PWR010" H 2350 2000 50  0001 C CNN
F 1 "GND" H 2350 2100 50  0000 C CNN
F 2 "" H 2350 2250 50  0000 C CNN
F 3 "" H 2350 2250 50  0000 C CNN
	1    2350 2250
	1    0    0    -1  
$EndComp
$Comp
L GND #PWR011
U 1 1 5AABD8CC
P 3550 1350
F 0 "#PWR011" H 3550 1100 50  0001 C CNN
F 1 "GND" H 3550 1200 50  0000 C CNN
F 2 "" H 3550 1350 50  0000 C CNN
F 3 "" H 3550 1350 50  0000 C CNN
	1    3550 1350
	1    0    0    -1  
$EndComp
$Comp
L OPA2353 U3
U 2 1 5AABDD20
P 3350 3700
F 0 "U3" H 3500 3950 60  0000 C CNN
F 1 "OPA2353" H 3750 3550 60  0000 C CNN
F 2 "Housings_SOIC:SOIC-8_3.9x4.9mm_Pitch1.27mm" H 2900 3700 60  0001 C CNN
F 3 "" H 2900 3700 60  0001 C CNN
	2    3350 3700
	1    0    0    1   
$EndComp
$Comp
L C C12
U 1 1 5AABDD26
P 1700 3500
F 0 "C12" H 1725 3600 50  0000 L CNN
F 1 "10u" H 1725 3400 50  0000 L CNN
F 2 "DAC:C_0805_HandSoldering" H 1738 3350 50  0001 C CNN
F 3 "" H 1700 3500 50  0000 C CNN
	1    1700 3500
	0    -1   -1   0   
$EndComp
$Comp
L R R9
U 1 1 5AABDD2C
P 2100 3500
F 0 "R9" V 2180 3500 50  0000 C CNN
F 1 "12k" V 2100 3500 50  0000 C CNN
F 2 "DAC:R_0805_HandSoldering" V 2030 3500 50  0001 C CNN
F 3 "" H 2100 3500 50  0000 C CNN
	1    2100 3500
	0    1    1    0   
$EndComp
$Comp
L R R11
U 1 1 5AABDD32
P 2550 3500
F 0 "R11" V 2630 3500 50  0000 C CNN
F 1 "3.9k" V 2550 3500 50  0000 C CNN
F 2 "DAC:R_0805_HandSoldering" V 2480 3500 50  0001 C CNN
F 3 "" H 2550 3500 50  0000 C CNN
	1    2550 3500
	0    1    1    0   
$EndComp
$Comp
L C C14
U 1 1 5AABDD38
P 2350 3850
F 0 "C14" H 2375 3950 50  0000 L CNN
F 1 "1.8n" H 2375 3750 50  0000 L CNN
F 2 "DAC:C_0805_HandSoldering" H 2388 3700 50  0001 C CNN
F 3 "" H 2350 3850 50  0000 C CNN
	1    2350 3850
	1    0    0    -1  
$EndComp
$Comp
L C C16
U 1 1 5AABDD3E
P 3400 3000
F 0 "C16" H 3425 3100 50  0000 L CNN
F 1 "330p" H 3425 2900 50  0000 L CNN
F 2 "DAC:C_0805_HandSoldering" H 3438 2850 50  0001 C CNN
F 3 "" H 3400 3000 50  0000 C CNN
	1    3400 3000
	0    1    1    0   
$EndComp
$Comp
L R R13
U 1 1 5AABDD44
P 3400 2650
F 0 "R13" V 3480 2650 50  0000 C CNN
F 1 "12k" V 3400 2650 50  0000 C CNN
F 2 "DAC:R_0805_HandSoldering" V 3330 2650 50  0001 C CNN
F 3 "" H 3400 2650 50  0000 C CNN
	1    3400 2650
	0    1    1    0   
$EndComp
$Comp
L R R15
U 1 1 5AABDD4A
P 4450 3700
F 0 "R15" V 4530 3700 50  0000 C CNN
F 1 "100" V 4450 3700 50  0000 C CNN
F 2 "DAC:R_0805_HandSoldering" V 4380 3700 50  0001 C CNN
F 3 "" H 4450 3700 50  0000 C CNN
	1    4450 3700
	0    1    1    0   
$EndComp
$Comp
L C C20
U 1 1 5AABDD50
P 5050 3700
F 0 "C20" H 5075 3800 50  0000 L CNN
F 1 "10u" H 5075 3600 50  0000 L CNN
F 2 "DAC:C_0805_HandSoldering" H 5088 3550 50  0001 C CNN
F 3 "" H 5050 3700 50  0000 C CNN
	1    5050 3700
	0    -1   -1   0   
$EndComp
$Comp
L GND #PWR012
U 1 1 5AABDD56
P 2350 4100
F 0 "#PWR012" H 2350 3850 50  0001 C CNN
F 1 "GND" H 2350 3950 50  0000 C CNN
F 2 "" H 2350 4100 50  0000 C CNN
F 3 "" H 2350 4100 50  0000 C CNN
	1    2350 4100
	1    0    0    -1  
$EndComp
$Comp
L GND #PWR013
U 1 1 5AABDD72
P 3550 3200
F 0 "#PWR013" H 3550 2950 50  0001 C CNN
F 1 "GND" H 3550 3050 50  0000 C CNN
F 2 "" H 3550 3200 50  0000 C CNN
F 3 "" H 3550 3200 50  0000 C CNN
	1    3550 3200
	1    0    0    -1  
$EndComp
Text HLabel 1350 1650 0    60   Input ~ 0
PRE_LEFT_OUT
Text HLabel 1350 3500 0    60   Input ~ 0
PRE_RIGHT_OUT
Text HLabel 5750 1850 2    60   Input ~ 0
LEFT_OUT
Text HLabel 5750 3700 2    60   Input ~ 0
RIGHT_OUT
Text HLabel 3350 2400 0    60   Input ~ 0
V3.x
Text HLabel 3350 4250 0    60   Input ~ 0
V3.x
$Comp
L C C18
U 1 1 5AABEC64
P 4350 4250
F 0 "C18" H 4375 4350 50  0000 L CNN
F 1 "10u" H 4375 4150 50  0000 L CNN
F 2 "DAC:C_0805_HandSoldering" H 4388 4100 50  0001 C CNN
F 3 "" H 4350 4250 50  0000 C CNN
	1    4350 4250
	0    -1   -1   0   
$EndComp
$Comp
L GND #PWR014
U 1 1 5AABEC6C
P 4650 4300
F 0 "#PWR014" H 4650 4050 50  0001 C CNN
F 1 "GND" H 4650 4150 50  0000 C CNN
F 2 "" H 4650 4300 50  0000 C CNN
F 3 "" H 4650 4300 50  0000 C CNN
	1    4650 4300
	1    0    0    -1  
$EndComp
Text HLabel 2900 2050 0    60   Input ~ 0
VCOM
Text HLabel 2900 3900 0    60   Input ~ 0
VCOM
$Comp
L OPA2353 U4
U 1 1 5AABFC1F
P 8050 3050
F 0 "U4" H 8200 3300 60  0000 C CNN
F 1 "OPA2353" H 8450 2900 60  0000 C CNN
F 2 "SMD_Packages:SOIC-8-N" H 7600 3050 60  0001 C CNN
F 3 "" H 7600 3050 60  0001 C CNN
	1    8050 3050
	1    0    0    1   
$EndComp
$Comp
L C C21
U 1 1 5AABFC25
P 6400 2850
F 0 "C21" H 6425 2950 50  0000 L CNN
F 1 "10u" H 6425 2750 50  0000 L CNN
F 2 "DAC:C_0805_HandSoldering" H 6438 2700 50  0001 C CNN
F 3 "" H 6400 2850 50  0000 C CNN
	1    6400 2850
	0    -1   -1   0   
$EndComp
$Comp
L R R16
U 1 1 5AABFC2B
P 6800 2850
F 0 "R16" V 6880 2850 50  0000 C CNN
F 1 "12k" V 6800 2850 50  0000 C CNN
F 2 "DAC:R_0805_HandSoldering" V 6730 2850 50  0001 C CNN
F 3 "" H 6800 2850 50  0000 C CNN
	1    6800 2850
	0    1    1    0   
$EndComp
$Comp
L R R18
U 1 1 5AABFC31
P 7250 2850
F 0 "R18" V 7330 2850 50  0000 C CNN
F 1 "3.9k" V 7250 2850 50  0000 C CNN
F 2 "DAC:R_0805_HandSoldering" V 7180 2850 50  0001 C CNN
F 3 "" H 7250 2850 50  0000 C CNN
	1    7250 2850
	0    1    1    0   
$EndComp
$Comp
L C C23
U 1 1 5AABFC37
P 7050 3200
F 0 "C23" H 7075 3300 50  0000 L CNN
F 1 "1.8n" H 7075 3100 50  0000 L CNN
F 2 "DAC:C_0805_HandSoldering" H 7088 3050 50  0001 C CNN
F 3 "" H 7050 3200 50  0000 C CNN
	1    7050 3200
	1    0    0    -1  
$EndComp
$Comp
L C C25
U 1 1 5AABFC3D
P 8100 2350
F 0 "C25" H 8125 2450 50  0000 L CNN
F 1 "330p" H 8125 2250 50  0000 L CNN
F 2 "DAC:C_0805_HandSoldering" H 8138 2200 50  0001 C CNN
F 3 "" H 8100 2350 50  0000 C CNN
	1    8100 2350
	0    1    1    0   
$EndComp
$Comp
L R R20
U 1 1 5AABFC43
P 8100 2000
F 0 "R20" V 8180 2000 50  0000 C CNN
F 1 "12k" V 8100 2000 50  0000 C CNN
F 2 "DAC:R_0805_HandSoldering" V 8030 2000 50  0001 C CNN
F 3 "" H 8100 2000 50  0000 C CNN
	1    8100 2000
	0    1    1    0   
$EndComp
$Comp
L R R22
U 1 1 5AABFC49
P 9150 3050
F 0 "R22" V 9230 3050 50  0000 C CNN
F 1 "100" V 9150 3050 50  0000 C CNN
F 2 "DAC:R_0805_HandSoldering" V 9080 3050 50  0001 C CNN
F 3 "" H 9150 3050 50  0000 C CNN
	1    9150 3050
	0    1    1    0   
$EndComp
$Comp
L C C29
U 1 1 5AABFC4F
P 9750 3050
F 0 "C29" H 9775 3150 50  0000 L CNN
F 1 "10u" H 9775 2950 50  0000 L CNN
F 2 "DAC:C_0805_HandSoldering" H 9788 2900 50  0001 C CNN
F 3 "" H 9750 3050 50  0000 C CNN
	1    9750 3050
	0    -1   -1   0   
$EndComp
$Comp
L GND #PWR015
U 1 1 5AABFC55
P 7050 3450
F 0 "#PWR015" H 7050 3200 50  0001 C CNN
F 1 "GND" H 7050 3300 50  0000 C CNN
F 2 "" H 7050 3450 50  0000 C CNN
F 3 "" H 7050 3450 50  0000 C CNN
	1    7050 3450
	1    0    0    -1  
$EndComp
$Comp
L GND #PWR016
U 1 1 5AABFC76
P 8250 2550
F 0 "#PWR016" H 8250 2300 50  0001 C CNN
F 1 "GND" H 8250 2400 50  0000 C CNN
F 2 "" H 8250 2550 50  0000 C CNN
F 3 "" H 8250 2550 50  0000 C CNN
	1    8250 2550
	1    0    0    -1  
$EndComp
$Comp
L OPA2353 U4
U 2 1 5AABFC7D
P 8050 4900
F 0 "U4" H 8200 5150 60  0000 C CNN
F 1 "OPA2353" H 8450 4750 60  0000 C CNN
F 2 "SMD_Packages:SOIC-8-N" H 7600 4900 60  0001 C CNN
F 3 "" H 7600 4900 60  0001 C CNN
	2    8050 4900
	1    0    0    1   
$EndComp
$Comp
L C C22
U 1 1 5AABFC83
P 6400 4700
F 0 "C22" H 6425 4800 50  0000 L CNN
F 1 "10u" H 6425 4600 50  0000 L CNN
F 2 "DAC:C_0805_HandSoldering" H 6438 4550 50  0001 C CNN
F 3 "" H 6400 4700 50  0000 C CNN
	1    6400 4700
	0    -1   -1   0   
$EndComp
$Comp
L R R17
U 1 1 5AABFC89
P 6800 4700
F 0 "R17" V 6880 4700 50  0000 C CNN
F 1 "12k" V 6800 4700 50  0000 C CNN
F 2 "DAC:R_0805_HandSoldering" V 6730 4700 50  0001 C CNN
F 3 "" H 6800 4700 50  0000 C CNN
	1    6800 4700
	0    1    1    0   
$EndComp
$Comp
L R R19
U 1 1 5AABFC8F
P 7250 4700
F 0 "R19" V 7330 4700 50  0000 C CNN
F 1 "3.9k" V 7250 4700 50  0000 C CNN
F 2 "DAC:R_0805_HandSoldering" V 7180 4700 50  0001 C CNN
F 3 "" H 7250 4700 50  0000 C CNN
	1    7250 4700
	0    1    1    0   
$EndComp
$Comp
L C C24
U 1 1 5AABFC95
P 7050 5050
F 0 "C24" H 7075 5150 50  0000 L CNN
F 1 "1.8n" H 7075 4950 50  0000 L CNN
F 2 "DAC:C_0805_HandSoldering" H 7088 4900 50  0001 C CNN
F 3 "" H 7050 5050 50  0000 C CNN
	1    7050 5050
	1    0    0    -1  
$EndComp
$Comp
L C C26
U 1 1 5AABFC9B
P 8100 4200
F 0 "C26" H 8125 4300 50  0000 L CNN
F 1 "330p" H 8125 4100 50  0000 L CNN
F 2 "DAC:C_0805_HandSoldering" H 8138 4050 50  0001 C CNN
F 3 "" H 8100 4200 50  0000 C CNN
	1    8100 4200
	0    1    1    0   
$EndComp
$Comp
L R R21
U 1 1 5AABFCA1
P 8100 3850
F 0 "R21" V 8180 3850 50  0000 C CNN
F 1 "12k" V 8100 3850 50  0000 C CNN
F 2 "DAC:R_0805_HandSoldering" V 8030 3850 50  0001 C CNN
F 3 "" H 8100 3850 50  0000 C CNN
	1    8100 3850
	0    1    1    0   
$EndComp
$Comp
L R R23
U 1 1 5AABFCA7
P 9150 4900
F 0 "R23" V 9230 4900 50  0000 C CNN
F 1 "100" V 9150 4900 50  0000 C CNN
F 2 "DAC:R_0805_HandSoldering" V 9080 4900 50  0001 C CNN
F 3 "" H 9150 4900 50  0000 C CNN
	1    9150 4900
	0    1    1    0   
$EndComp
$Comp
L C C30
U 1 1 5AABFCAD
P 9750 4900
F 0 "C30" H 9775 5000 50  0000 L CNN
F 1 "10u" H 9775 4800 50  0000 L CNN
F 2 "DAC:C_0805_HandSoldering" H 9788 4750 50  0001 C CNN
F 3 "" H 9750 4900 50  0000 C CNN
	1    9750 4900
	0    -1   -1   0   
$EndComp
$Comp
L GND #PWR017
U 1 1 5AABFCB3
P 7050 5300
F 0 "#PWR017" H 7050 5050 50  0001 C CNN
F 1 "GND" H 7050 5150 50  0000 C CNN
F 2 "" H 7050 5300 50  0000 C CNN
F 3 "" H 7050 5300 50  0000 C CNN
	1    7050 5300
	1    0    0    -1  
$EndComp
$Comp
L GND #PWR018
U 1 1 5AABFCD4
P 8250 4400
F 0 "#PWR018" H 8250 4150 50  0001 C CNN
F 1 "GND" H 8250 4250 50  0000 C CNN
F 2 "" H 8250 4400 50  0000 C CNN
F 3 "" H 8250 4400 50  0000 C CNN
	1    8250 4400
	1    0    0    -1  
$EndComp
Text HLabel 6050 2850 0    60   Input ~ 0
LEFT_IN
Text HLabel 6050 4700 0    60   Input ~ 0
RIGHT_IN
Text HLabel 10450 3050 2    60   Input ~ 0
POST_LEFT_IN
Text HLabel 10450 4900 2    60   Input ~ 0
POST_RIGHT_IN
Text HLabel 8050 3600 0    60   Input ~ 0
V3.x
Text HLabel 8050 5450 0    60   Input ~ 0
V3.x
$Comp
L C C28
U 1 1 5AABFCF1
P 9050 5450
F 0 "C28" H 9075 5550 50  0000 L CNN
F 1 "10u" H 9075 5350 50  0000 L CNN
F 2 "DAC:C_0805_HandSoldering" H 9088 5300 50  0001 C CNN
F 3 "" H 9050 5450 50  0000 C CNN
	1    9050 5450
	0    -1   -1   0   
$EndComp
$Comp
L GND #PWR019
U 1 1 5AABFCF9
P 9350 5500
F 0 "#PWR019" H 9350 5250 50  0001 C CNN
F 1 "GND" H 9350 5350 50  0000 C CNN
F 2 "" H 9350 5500 50  0000 C CNN
F 3 "" H 9350 5500 50  0000 C CNN
	1    9350 5500
	1    0    0    -1  
$EndComp
Text HLabel 7600 3250 0    60   Input ~ 0
VCOM
Text HLabel 7600 5100 0    60   Input ~ 0
VCOM
Wire Wire Line
	1350 1650 1550 1650
Wire Wire Line
	1850 1650 1950 1650
Wire Wire Line
	2250 1650 2400 1650
Wire Wire Line
	2700 1650 2900 1650
Wire Wire Line
	2350 800  2350 1850
Connection ~ 2350 1650
Wire Wire Line
	2350 800  3250 800 
Wire Wire Line
	3950 1850 4300 1850
Wire Wire Line
	4600 1850 4900 1850
Wire Wire Line
	5200 1850 5750 1850
Wire Wire Line
	3250 1150 2800 1150
Wire Wire Line
	2800 1150 2800 1650
Connection ~ 2800 1650
Wire Wire Line
	3550 1150 4100 1150
Wire Wire Line
	4100 800  4100 1850
Connection ~ 4100 1850
Wire Wire Line
	3550 800  4100 800 
Connection ~ 4100 1150
Wire Wire Line
	2350 2150 2350 2250
Wire Wire Line
	3350 1450 3350 1300
Wire Wire Line
	3350 1300 3550 1300
Wire Wire Line
	3550 1300 3550 1350
Wire Wire Line
	3350 2250 3350 2400
Wire Wire Line
	1350 3500 1550 3500
Wire Wire Line
	1850 3500 1950 3500
Wire Wire Line
	2250 3500 2400 3500
Wire Wire Line
	2700 3500 2900 3500
Wire Wire Line
	2350 2650 2350 3700
Connection ~ 2350 3500
Wire Wire Line
	2350 2650 3250 2650
Wire Wire Line
	3950 3700 4300 3700
Wire Wire Line
	4600 3700 4900 3700
Wire Wire Line
	5200 3700 5750 3700
Wire Wire Line
	3250 3000 2800 3000
Wire Wire Line
	2800 3000 2800 3500
Connection ~ 2800 3500
Wire Wire Line
	3550 3000 4100 3000
Wire Wire Line
	4100 2650 4100 3700
Connection ~ 4100 3700
Wire Wire Line
	3550 2650 4100 2650
Connection ~ 4100 3000
Wire Wire Line
	2350 4000 2350 4100
Wire Wire Line
	3350 3300 3350 3150
Wire Wire Line
	3350 3150 3550 3150
Wire Wire Line
	3550 3150 3550 3200
Wire Wire Line
	3350 4100 3350 4250
Wire Wire Line
	3350 4250 4200 4250
Wire Wire Line
	4500 4250 4650 4250
Wire Wire Line
	4650 4250 4650 4300
Wire Wire Line
	6050 2850 6250 2850
Wire Wire Line
	6550 2850 6650 2850
Wire Wire Line
	6950 2850 7100 2850
Wire Wire Line
	7400 2850 7600 2850
Wire Wire Line
	7050 2000 7050 3050
Connection ~ 7050 2850
Wire Wire Line
	7050 2000 7950 2000
Wire Wire Line
	8650 3050 9000 3050
Wire Wire Line
	9300 3050 9600 3050
Wire Wire Line
	9900 3050 10450 3050
Wire Wire Line
	7950 2350 7500 2350
Wire Wire Line
	7500 2350 7500 2850
Connection ~ 7500 2850
Wire Wire Line
	8250 2350 8800 2350
Wire Wire Line
	8800 2000 8800 3050
Connection ~ 8800 3050
Wire Wire Line
	8250 2000 8800 2000
Connection ~ 8800 2350
Wire Wire Line
	7050 3350 7050 3450
Wire Wire Line
	8050 2650 8050 2500
Wire Wire Line
	8050 2500 8250 2500
Wire Wire Line
	8250 2500 8250 2550
Wire Wire Line
	8050 3450 8050 3600
Wire Wire Line
	6050 4700 6250 4700
Wire Wire Line
	6550 4700 6650 4700
Wire Wire Line
	6950 4700 7100 4700
Wire Wire Line
	7400 4700 7600 4700
Wire Wire Line
	7050 3850 7050 4900
Connection ~ 7050 4700
Wire Wire Line
	7050 3850 7950 3850
Wire Wire Line
	8650 4900 9000 4900
Wire Wire Line
	9300 4900 9600 4900
Wire Wire Line
	9900 4900 10450 4900
Wire Wire Line
	7950 4200 7500 4200
Wire Wire Line
	7500 4200 7500 4700
Connection ~ 7500 4700
Wire Wire Line
	8250 4200 8800 4200
Wire Wire Line
	8800 3850 8800 4900
Connection ~ 8800 4900
Wire Wire Line
	8250 3850 8800 3850
Connection ~ 8800 4200
Wire Wire Line
	7050 5200 7050 5300
Wire Wire Line
	8050 4500 8050 4350
Wire Wire Line
	8050 4350 8250 4350
Wire Wire Line
	8250 4350 8250 4400
Wire Wire Line
	8050 5300 8050 5450
Wire Wire Line
	8050 5450 8900 5450
Wire Wire Line
	9200 5450 9350 5450
Wire Wire Line
	9350 5450 9350 5500
$EndSCHEMATC
