<?xml version="1.0" standalone="no"?>
 <!DOCTYPE svg PUBLIC "-//W3C//DTD SVG 1.1//EN" 
 "http://www.w3.org/Graphics/SVG/1.1/DTD/svg11.dtd"> 
<svg xmlns="http://www.w3.org/2000/svg" version="1.1" 
    width="29.7002cm" height="21.0007cm" viewBox="0 0 116930 82680 ">
<title>SVG Picture created as DAC-F.Mask.svg date 2018/03/21 18:36:07 </title>
  <desc>Picture generated by PCBNEW </desc>
<g style="fill:#000000; fill-opacity:1;stroke:#000000; stroke-opacity:1;
stroke-linecap:round; stroke-linejoin:round; "
 transform="translate(0 0) scale(1 1)">
</g>
<g style="fill:#000000; fill-opacity:0.0; 
stroke:#000000; stroke-width:-0.000393701; stroke-opacity:1; 
stroke-linecap:round; stroke-linejoin:round;">
</g>
<g style="fill:#000000; fill-opacity:0.0; 
stroke:#000000; stroke-width:0; stroke-opacity:1; 
stroke-linecap:round; stroke-linejoin:round;">
</g>
<g style="fill:#000000; fill-opacity:1.0; 
stroke:#000000; stroke-width:0; stroke-opacity:1; 
stroke-linecap:round; stroke-linejoin:round;">
<polyline style="fill-rule:evenodd;"
points="60678,35111
61286,35111
61286,35468
60678,35468
60678,35111
" /> 
<polyline style="fill-rule:evenodd;"
points="60678,35611
61286,35611
61286,35968
60678,35968
60678,35611
" /> 
<polyline style="fill-rule:evenodd;"
points="60678,36111
61286,36111
61286,36468
60678,36468
60678,36111
" /> 
<polyline style="fill-rule:evenodd;"
points="60678,36611
61286,36611
61286,36968
60678,36968
60678,36611
" /> 
<polyline style="fill-rule:evenodd;"
points="58178,36611
58786,36611
58786,36968
58178,36968
58178,36611
" /> 
<polyline style="fill-rule:evenodd;"
points="58178,36111
58786,36111
58786,36468
58178,36468
58178,36111
" /> 
<polyline style="fill-rule:evenodd;"
points="58178,35611
58786,35611
58786,35968
58178,35968
58178,35611
" /> 
<polyline style="fill-rule:evenodd;"
points="58178,35111
58786,35111
58786,35468
58178,35468
58178,35111
" /> 
<polyline style="fill-rule:evenodd;"
points="48228,35472
47598,35472
47598,34960
48228,34960
48228,35472
" /> 
<polyline style="fill-rule:evenodd;"
points="48228,34173
47598,34173
47598,33661
48228,33661
48228,34173
" /> 
<polyline style="fill-rule:evenodd;"
points="45191,38463
45585,38463
45585,39487
45191,39487
45191,38463
" /> 
<polyline style="fill-rule:evenodd;"
points="46191,38463
46585,38463
46585,39487
46191,39487
46191,38463
" /> 
<polyline style="fill-rule:evenodd;"
points="45130,40954
46646,40954
46646,41958
45130,41958
45130,40954
" /> 
<polyline style="fill-rule:evenodd;"
points="45691,38463
46085,38463
46085,39487
45691,39487
45691,38463
" /> 
<polyline style="fill-rule:evenodd;"
points="44691,38463
45085,38463
45085,39487
44691,39487
44691,38463
" /> 
<polyline style="fill-rule:evenodd;"
points="46691,38463
47085,38463
47085,39487
46691,39487
46691,38463
" /> 
<polyline style="fill-rule:evenodd;"
points="52077,41155
52077,42258
51132,42258
51132,41155
52077,41155
" /> 
<polyline style="fill-rule:evenodd;"
points="50620,41155
50620,42258
49675,42258
49675,41155
50620,41155
" /> 
<polyline style="fill-rule:evenodd;"
points="45167,33996
45167,33681
45856,33681
45856,33996
45167,33996
" /> 
<polyline style="fill-rule:evenodd;"
points="45167,34251
45167,33937
45856,33937
45856,34251
45167,34251
" /> 
<polyline style="fill-rule:evenodd;"
points="45167,34507
45167,34192
45856,34192
45856,34507
45167,34507
" /> 
<polyline style="fill-rule:evenodd;"
points="45167,34763
45167,34448
45856,34448
45856,34763
45167,34763
" /> 
<polyline style="fill-rule:evenodd;"
points="45167,35019
45167,34704
45856,34704
45856,35019
45167,35019
" /> 
</g>
<g style="fill:#000000; fill-opacity:1.0; 
stroke:#000000; stroke-width:531.496; stroke-opacity:1; 
stroke-linecap:round; stroke-linejoin:round;">
</g>
<g style="fill:#000000; fill-opacity:0.0; 
stroke:#000000; stroke-width:531.496; stroke-opacity:1; 
stroke-linecap:round; stroke-linejoin:round;">
<path d="M45511 33307
L45511 33425
" />
<path d="M45511 35275
L45511 35393
" />
</g>
<g style="fill:#000000; fill-opacity:0.0; 
stroke:#000000; stroke-width:551.181; stroke-opacity:1; 
stroke-linecap:round; stroke-linejoin:round;">
<path d="M44340 32972
L44557 32972
" />
<path d="M44340 35728
L44557 35728
" />
</g>
<g style="fill:#000000; fill-opacity:1.0; 
stroke:#000000; stroke-width:0; stroke-opacity:1; 
stroke-linecap:round; stroke-linejoin:round;">
<circle cx="50053.5" cy="32369.7" r="866.142" /> 
</g>
<g style="fill:#000000; fill-opacity:1.0; 
stroke:#000000; stroke-width:39.3701; stroke-opacity:1; 
stroke-linecap:round; stroke-linejoin:round;">
</g>
<g style="fill:#000000; fill-opacity:1.0; 
stroke:#000000; stroke-width:0; stroke-opacity:1; 
stroke-linecap:round; stroke-linejoin:round;">
<circle cx="65801.6" cy="43590.2" r="866.142" /> 
</g>
<g style="fill:#000000; fill-opacity:1.0; 
stroke:#000000; stroke-width:39.3701; stroke-opacity:1; 
stroke-linecap:round; stroke-linejoin:round;">
</g>
<g style="fill:#000000; fill-opacity:1.0; 
stroke:#000000; stroke-width:0; stroke-opacity:1; 
stroke-linecap:round; stroke-linejoin:round;">
<polyline style="fill-rule:evenodd;"
points="71377,37145
71377,38523
70433,38523
70433,37145
71377,37145
" /> 
<polyline style="fill-rule:evenodd;"
points="70354,37145
70354,38523
69330,38523
69330,37145
70354,37145
" /> 
<polyline style="fill-rule:evenodd;"
points="66023,35570
66023,36791
64448,36791
64448,35570
66023,35570
" /> 
<polyline style="fill-rule:evenodd;"
points="71102,33838
71102,35216
70078,35216
70078,33838
71102,33838
" /> 
<polyline style="fill-rule:evenodd;"
points="67539,33838
67539,35216
66318,35216
66318,33838
67539,33838
" /> 
<circle cx="70157.5" cy="36181.1" r="393.701" /> 
</g>
<g style="fill:#000000; fill-opacity:1.0; 
stroke:#000000; stroke-width:39.3701; stroke-opacity:1; 
stroke-linecap:round; stroke-linejoin:round;">
</g>
<g style="fill:#000000; fill-opacity:1.0; 
stroke:#000000; stroke-width:0; stroke-opacity:1; 
stroke-linecap:round; stroke-linejoin:round;">
<circle cx="67401.6" cy="36181.1" r="393.701" /> 
</g>
<g style="fill:#000000; fill-opacity:1.0; 
stroke:#000000; stroke-width:39.3701; stroke-opacity:1; 
stroke-linecap:round; stroke-linejoin:round;">
</g>
<g style="fill:#000000; fill-opacity:1.0; 
stroke:#000000; stroke-width:0; stroke-opacity:1; 
stroke-linecap:round; stroke-linejoin:round;">
<polyline style="fill-rule:evenodd;"
points="71377,42421
71377,43799
70433,43799
70433,42421
71377,42421
" /> 
<polyline style="fill-rule:evenodd;"
points="70354,42421
70354,43799
69330,43799
69330,42421
70354,42421
" /> 
<polyline style="fill-rule:evenodd;"
points="66023,40846
66023,42066
64448,42066
64448,40846
66023,40846
" /> 
<polyline style="fill-rule:evenodd;"
points="71102,39114
71102,40492
70078,40492
70078,39114
71102,39114
" /> 
<polyline style="fill-rule:evenodd;"
points="67539,39114
67539,40492
66318,40492
66318,39114
67539,39114
" /> 
<circle cx="70157.5" cy="41456.7" r="393.701" /> 
</g>
<g style="fill:#000000; fill-opacity:1.0; 
stroke:#000000; stroke-width:39.3701; stroke-opacity:1; 
stroke-linecap:round; stroke-linejoin:round;">
</g>
<g style="fill:#000000; fill-opacity:1.0; 
stroke:#000000; stroke-width:0; stroke-opacity:1; 
stroke-linecap:round; stroke-linejoin:round;">
<circle cx="67401.6" cy="41456.7" r="393.701" /> 
</g>
<g style="fill:#000000; fill-opacity:1.0; 
stroke:#000000; stroke-width:39.3701; stroke-opacity:1; 
stroke-linecap:round; stroke-linejoin:round;">
</g>
<g style="fill:#000000; fill-opacity:1.0; 
stroke:#000000; stroke-width:0; stroke-opacity:1; 
stroke-linecap:round; stroke-linejoin:round;">
<polyline style="fill-rule:evenodd;"
points="45206,38124
44557,38124
44557,37376
45206,37376
45206,38124
" /> 
<polyline style="fill-rule:evenodd;"
points="45206,37140
44557,37140
44557,36392
45206,36392
45206,37140
" /> 
<polyline style="fill-rule:evenodd;"
points="51378,35427
50728,35427
50728,34679
51378,34679
51378,35427
" /> 
<polyline style="fill-rule:evenodd;"
points="51378,34443
50728,34443
50728,33695
51378,33695
51378,34443
" /> 
<polyline style="fill-rule:evenodd;"
points="47923,36082
48572,36082
48572,36830
47923,36830
47923,36082
" /> 
<polyline style="fill-rule:evenodd;"
points="47923,37066
48572,37066
48572,37814
47923,37814
47923,37066
" /> 
<polyline style="fill-rule:evenodd;"
points="48572,39685
47923,39685
47923,38937
48572,38937
48572,39685
" /> 
<polyline style="fill-rule:evenodd;"
points="48572,38700
47923,38700
47923,37952
48572,37952
48572,38700
" /> 
<polyline style="fill-rule:evenodd;"
points="53139,36062
53789,36062
53789,36811
53139,36811
53139,36062
" /> 
<polyline style="fill-rule:evenodd;"
points="53139,37047
53789,37047
53789,37795
53139,37795
53139,37047
" /> 
<polyline style="fill-rule:evenodd;"
points="53789,39685
53139,39685
53139,38937
53789,38937
53789,39685
" /> 
<polyline style="fill-rule:evenodd;"
points="53789,38700
53139,38700
53139,37952
53789,37952
53789,38700
" /> 
<polyline style="fill-rule:evenodd;"
points="53080,42500
52431,42500
52431,41751
53080,41751
53080,42500
" /> 
<polyline style="fill-rule:evenodd;"
points="53080,41515
52431,41515
52431,40767
53080,40767
53080,41515
" /> 
<polyline style="fill-rule:evenodd;"
points="49340,42500
48690,42500
48690,41751
49340,41751
49340,42500
" /> 
<polyline style="fill-rule:evenodd;"
points="49340,41515
48690,41515
48690,40767
49340,40767
49340,41515
" /> 
<polyline style="fill-rule:evenodd;"
points="61779,38273
61779,38923
61031,38923
61031,38273
61779,38273
" /> 
<polyline style="fill-rule:evenodd;"
points="60795,38273
60795,38923
60047,38923
60047,38273
60795,38273
" /> 
<polyline style="fill-rule:evenodd;"
points="57881,38923
57881,38273
58629,38273
58629,38923
57881,38923
" /> 
<polyline style="fill-rule:evenodd;"
points="58866,38923
58866,38273
59614,38273
59614,38923
58866,38923
" /> 
<polyline style="fill-rule:evenodd;"
points="63944,41817
63944,42466
63196,42466
63196,41817
63944,41817
" /> 
<polyline style="fill-rule:evenodd;"
points="62960,41817
62960,42466
62212,42466
62212,41817
62960,41817
" /> 
<polyline style="fill-rule:evenodd;"
points="55716,42466
55716,41817
56464,41817
56464,42466
55716,42466
" /> 
<polyline style="fill-rule:evenodd;"
points="56700,42466
56700,41817
57448,41817
57448,42466
56700,42466
" /> 
<polyline style="fill-rule:evenodd;"
points="57881,37939
57881,37289
58629,37289
58629,37939
57881,37939
" /> 
<polyline style="fill-rule:evenodd;"
points="58866,37939
58866,37289
59614,37289
59614,37939
58866,37939
" /> 
<polyline style="fill-rule:evenodd;"
points="61779,37289
61779,37939
61031,37939
61031,37289
61779,37289
" /> 
<polyline style="fill-rule:evenodd;"
points="60795,37289
60795,37939
60047,37939
60047,37289
60795,37289
" /> 
<polyline style="fill-rule:evenodd;"
points="55716,34592
55716,33943
56464,33943
56464,34592
55716,34592
" /> 
<polyline style="fill-rule:evenodd;"
points="56700,34592
56700,33943
57448,33943
57448,34592
56700,34592
" /> 
<polyline style="fill-rule:evenodd;"
points="63944,33931
63944,34580
63196,34580
63196,33931
63944,33931
" /> 
<polyline style="fill-rule:evenodd;"
points="62960,33931
62960,34580
62212,34580
62212,33931
62960,33931
" /> 
<polyline style="fill-rule:evenodd;"
points="45475,38129
45475,37460
46223,37460
46223,38129
45475,38129
" /> 
<polyline style="fill-rule:evenodd;"
points="46538,38129
46538,37460
47286,37460
47286,38129
46538,38129
" /> 
<polyline style="fill-rule:evenodd;"
points="52372,35466
51703,35466
51703,34718
52372,34718
52372,35466
" /> 
<polyline style="fill-rule:evenodd;"
points="52372,34403
51703,34403
51703,33655
52372,33655
52372,34403
" /> 
<polyline style="fill-rule:evenodd;"
points="47286,36377
47286,37047
46538,37047
46538,36377
47286,36377
" /> 
<polyline style="fill-rule:evenodd;"
points="46223,36377
46223,37047
45475,37047
45475,36377
46223,36377
" /> 
<polyline style="fill-rule:evenodd;"
points="50404,35466
49734,35466
49734,34718
50404,34718
50404,35466
" /> 
<polyline style="fill-rule:evenodd;"
points="50404,34403
49734,34403
49734,33655
50404,33655
50404,34403
" /> 
<polyline style="fill-rule:evenodd;"
points="54341,35466
53671,35466
53671,34718
54341,34718
54341,35466
" /> 
<polyline style="fill-rule:evenodd;"
points="54341,34403
53671,34403
53671,33655
54341,33655
54341,34403
" /> 
<polyline style="fill-rule:evenodd;"
points="53356,35466
52687,35466
52687,34718
53356,34718
53356,35466
" /> 
<polyline style="fill-rule:evenodd;"
points="53356,34403
52687,34403
52687,33655
53356,33655
53356,34403
" /> 
<polyline style="fill-rule:evenodd;"
points="51782,39994
51782,40663
51034,40663
51034,39994
51782,39994
" /> 
<polyline style="fill-rule:evenodd;"
points="50719,39994
50719,40663
49971,40663
49971,39994
50719,39994
" /> 
<polyline style="fill-rule:evenodd;"
points="62173,40508
62173,39838
62921,39838
62921,40508
62173,40508
" /> 
<polyline style="fill-rule:evenodd;"
points="63236,40508
63236,39838
63984,39838
63984,40508
63236,40508
" /> 
<polyline style="fill-rule:evenodd;"
points="57488,39838
57488,40508
56740,40508
56740,39838
57488,39838
" /> 
<polyline style="fill-rule:evenodd;"
points="56425,39838
56425,40508
55677,40508
55677,39838
56425,39838
" /> 
<polyline style="fill-rule:evenodd;"
points="62173,39523
62173,38854
62921,38854
62921,39523
62173,39523
" /> 
<polyline style="fill-rule:evenodd;"
points="63236,39523
63236,38854
63984,38854
63984,39523
63236,39523
" /> 
<polyline style="fill-rule:evenodd;"
points="57488,38854
57488,39523
56740,39523
56740,38854
57488,38854
" /> 
<polyline style="fill-rule:evenodd;"
points="56425,38854
56425,39523
55677,39523
55677,38854
56425,38854
" /> 
<polyline style="fill-rule:evenodd;"
points="62173,41492
62173,40823
62921,40823
62921,41492
62173,41492
" /> 
<polyline style="fill-rule:evenodd;"
points="63236,41492
63236,40823
63984,40823
63984,41492
63236,41492
" /> 
<polyline style="fill-rule:evenodd;"
points="57488,40823
57488,41492
56740,41492
56740,40823
57488,40823
" /> 
<polyline style="fill-rule:evenodd;"
points="56425,40823
56425,41492
55677,41492
55677,40823
56425,40823
" /> 
<polyline style="fill-rule:evenodd;"
points="61818,41807
61818,42476
61070,42476
61070,41807
61818,41807
" /> 
<polyline style="fill-rule:evenodd;"
points="60755,41807
60755,42476
60007,42476
60007,41807
60755,41807
" /> 
<polyline style="fill-rule:evenodd;"
points="57842,42476
57842,41807
58590,41807
58590,42476
57842,42476
" /> 
<polyline style="fill-rule:evenodd;"
points="58905,42476
58905,41807
59653,41807
59653,42476
58905,42476
" /> 
<polyline style="fill-rule:evenodd;"
points="57488,35889
57488,36559
56740,36559
56740,35889
57488,35889
" /> 
<polyline style="fill-rule:evenodd;"
points="56425,35889
56425,36559
55677,36559
55677,35889
56425,35889
" /> 
<polyline style="fill-rule:evenodd;"
points="62173,36559
62173,35889
62921,35889
62921,36559
62173,36559
" /> 
<polyline style="fill-rule:evenodd;"
points="63236,36559
63236,35889
63984,35889
63984,36559
63236,36559
" /> 
<polyline style="fill-rule:evenodd;"
points="57488,36873
57488,37543
56740,37543
56740,36873
57488,36873
" /> 
<polyline style="fill-rule:evenodd;"
points="56425,36873
56425,37543
55677,37543
55677,36873
56425,36873
" /> 
<polyline style="fill-rule:evenodd;"
points="62173,37543
62173,36873
62921,36873
62921,37543
62173,37543
" /> 
<polyline style="fill-rule:evenodd;"
points="63236,37543
63236,36873
63984,36873
63984,37543
63236,37543
" /> 
<polyline style="fill-rule:evenodd;"
points="57488,34905
57488,35574
56740,35574
56740,34905
57488,34905
" /> 
<polyline style="fill-rule:evenodd;"
points="56425,34905
56425,35574
55677,35574
55677,34905
56425,34905
" /> 
<polyline style="fill-rule:evenodd;"
points="62173,35574
62173,34905
62921,34905
62921,35574
62173,35574
" /> 
<polyline style="fill-rule:evenodd;"
points="63236,35574
63236,34905
63984,34905
63984,35574
63236,35574
" /> 
<polyline style="fill-rule:evenodd;"
points="57842,34590
57842,33921
58590,33921
58590,34590
57842,34590
" /> 
<polyline style="fill-rule:evenodd;"
points="58905,34590
58905,33921
59653,33921
59653,34590
58905,34590
" /> 
<polyline style="fill-rule:evenodd;"
points="61818,33921
61818,34590
61070,34590
61070,33921
61818,33921
" /> 
<polyline style="fill-rule:evenodd;"
points="60755,33921
60755,34590
60007,34590
60007,33921
60755,33921
" /> 
<polyline style="fill-rule:evenodd;"
points="49320,35433
48671,35433
48671,34685
49320,34685
49320,35433
" /> 
<polyline style="fill-rule:evenodd;"
points="49320,34448
48671,34448
48671,33700
49320,33700
49320,34448
" /> 
<polyline style="fill-rule:evenodd;"
points="53415,40767
54064,40767
54064,41515
53415,41515
53415,40767
" /> 
<polyline style="fill-rule:evenodd;"
points="53415,41751
54064,41751
54064,42500
53415,42500
53415,41751
" /> 
<polyline style="fill-rule:evenodd;"
points="60059,43435
60059,42785
60807,42785
60807,43435
60059,43435
" /> 
<polyline style="fill-rule:evenodd;"
points="61043,43435
61043,42785
61791,42785
61791,43435
61043,43435
" /> 
<polyline style="fill-rule:evenodd;"
points="57893,43435
57893,42785
58641,42785
58641,43435
57893,43435
" /> 
<polyline style="fill-rule:evenodd;"
points="58877,43435
58877,42785
59625,42785
59625,43435
58877,43435
" /> 
<polyline style="fill-rule:evenodd;"
points="57448,37880
57448,38529
56700,38529
56700,37880
57448,37880
" /> 
<polyline style="fill-rule:evenodd;"
points="56464,37880
56464,38529
55716,38529
55716,37880
56464,37880
" /> 
<polyline style="fill-rule:evenodd;"
points="64291,40088
64291,39438
65039,39438
65039,40088
64291,40088
" /> 
<polyline style="fill-rule:evenodd;"
points="65275,40088
65275,39438
66023,39438
66023,40088
65275,40088
" /> 
<polyline style="fill-rule:evenodd;"
points="67342,43533
67342,42883
68090,42883
68090,43533
67342,43533
" /> 
<polyline style="fill-rule:evenodd;"
points="68326,43533
68326,42883
69074,42883
69074,43533
68326,43533
" /> 
<polyline style="fill-rule:evenodd;"
points="66023,34222
66023,34872
65275,34872
65275,34222
66023,34222
" /> 
<polyline style="fill-rule:evenodd;"
points="65039,34222
65039,34872
64291,34872
64291,34222
65039,34222
" /> 
<polyline style="fill-rule:evenodd;"
points="68287,37568
68287,38218
67539,38218
67539,37568
68287,37568
" /> 
<polyline style="fill-rule:evenodd;"
points="67303,37568
67303,38218
66555,38218
66555,37568
67303,37568
" /> 
<polyline style="fill-rule:evenodd;"
points="62212,38529
62212,37880
62960,37880
62960,38529
62212,38529
" /> 
<polyline style="fill-rule:evenodd;"
points="63196,38529
63196,37880
63944,37880
63944,38529
63196,38529
" /> 
<polyline style="fill-rule:evenodd;"
points="59625,33041
59625,33690
58877,33690
58877,33041
59625,33041
" /> 
<polyline style="fill-rule:evenodd;"
points="58641,33041
58641,33690
57893,33690
57893,33041
58641,33041
" /> 
<polyline style="fill-rule:evenodd;"
points="61791,33041
61791,33690
61043,33690
61043,33041
61791,33041
" /> 
<polyline style="fill-rule:evenodd;"
points="60807,33041
60807,33690
60059,33690
60059,33041
60807,33041
" /> 
<polyline style="fill-rule:evenodd;"
points="52362,36033
52696,36033
52696,36879
52362,36879
52362,36033
" /> 
<polyline style="fill-rule:evenodd;"
points="52106,36033
52440,36033
52440,36879
52106,36879
52106,36033
" /> 
<polyline style="fill-rule:evenodd;"
points="51850,36033
52185,36033
52185,36879
51850,36879
51850,36033
" /> 
<polyline style="fill-rule:evenodd;"
points="51594,36033
51929,36033
51929,36879
51594,36879
51594,36033
" /> 
<polyline style="fill-rule:evenodd;"
points="51338,36033
51673,36033
51673,36879
51338,36879
51338,36033
" /> 
<polyline style="fill-rule:evenodd;"
points="51082,36033
51417,36033
51417,36879
51082,36879
51082,36033
" /> 
<polyline style="fill-rule:evenodd;"
points="50826,36033
51161,36033
51161,36879
50826,36879
50826,36033
" /> 
<polyline style="fill-rule:evenodd;"
points="50570,36033
50905,36033
50905,36879
50570,36879
50570,36033
" /> 
<polyline style="fill-rule:evenodd;"
points="50314,36033
50649,36033
50649,36879
50314,36879
50314,36033
" /> 
<polyline style="fill-rule:evenodd;"
points="50059,36033
50393,36033
50393,36879
50059,36879
50059,36033
" /> 
<polyline style="fill-rule:evenodd;"
points="49803,36033
50137,36033
50137,36879
49803,36879
49803,36033
" /> 
<polyline style="fill-rule:evenodd;"
points="49547,36033
49881,36033
49881,36879
49547,36879
49547,36033
" /> 
<polyline style="fill-rule:evenodd;"
points="49291,36033
49625,36033
49625,36879
49291,36879
49291,36033
" /> 
<polyline style="fill-rule:evenodd;"
points="49035,36033
49370,36033
49370,36879
49035,36879
49035,36033
" /> 
<polyline style="fill-rule:evenodd;"
points="49035,38868
49370,38868
49370,39714
49035,39714
49035,38868
" /> 
<polyline style="fill-rule:evenodd;"
points="49291,38868
49625,38868
49625,39714
49291,39714
49291,38868
" /> 
<polyline style="fill-rule:evenodd;"
points="49547,38868
49881,38868
49881,39714
49547,39714
49547,38868
" /> 
<polyline style="fill-rule:evenodd;"
points="49803,38868
50137,38868
50137,39714
49803,39714
49803,38868
" /> 
<polyline style="fill-rule:evenodd;"
points="50059,38868
50393,38868
50393,39714
50059,39714
50059,38868
" /> 
<polyline style="fill-rule:evenodd;"
points="50314,38868
50649,38868
50649,39714
50314,39714
50314,38868
" /> 
<polyline style="fill-rule:evenodd;"
points="50570,38868
50905,38868
50905,39714
50570,39714
50570,38868
" /> 
<polyline style="fill-rule:evenodd;"
points="50826,38868
51161,38868
51161,39714
50826,39714
50826,38868
" /> 
<polyline style="fill-rule:evenodd;"
points="51082,38868
51417,38868
51417,39714
51082,39714
51082,38868
" /> 
<polyline style="fill-rule:evenodd;"
points="51338,38868
51673,38868
51673,39714
51338,39714
51338,38868
" /> 
<polyline style="fill-rule:evenodd;"
points="51594,38868
51929,38868
51929,39714
51594,39714
51594,38868
" /> 
<polyline style="fill-rule:evenodd;"
points="51850,38868
52185,38868
52185,39714
51850,39714
51850,38868
" /> 
<polyline style="fill-rule:evenodd;"
points="52106,38868
52440,38868
52440,39714
52106,39714
52106,38868
" /> 
<polyline style="fill-rule:evenodd;"
points="52362,38868
52696,38868
52696,39714
52362,39714
52362,38868
" /> 
<polyline style="fill-rule:evenodd;"
points="61218,40884
61218,41277
60450,41277
60450,40884
61218,40884
" /> 
<polyline style="fill-rule:evenodd;"
points="61218,40384
61218,40777
60450,40777
60450,40384
61218,40384
" /> 
<polyline style="fill-rule:evenodd;"
points="61218,39884
61218,40277
60450,40277
60450,39884
61218,39884
" /> 
<polyline style="fill-rule:evenodd;"
points="61218,39384
61218,39777
60450,39777
60450,39384
61218,39384
" /> 
<polyline style="fill-rule:evenodd;"
points="59092,39384
59092,39777
58324,39777
58324,39384
59092,39384
" /> 
<polyline style="fill-rule:evenodd;"
points="59092,39884
59092,40277
58324,40277
58324,39884
59092,39884
" /> 
<polyline style="fill-rule:evenodd;"
points="59092,40384
59092,40777
58324,40777
58324,40384
59092,40384
" /> 
<polyline style="fill-rule:evenodd;"
points="59092,40884
59092,41277
58324,41277
58324,40884
59092,40884
" /> 
<polyline style="fill-rule:evenodd;"
points="67961,32470
68434,31997
68963,32526
68490,32999
67961,32470
" /> 
<polyline style="fill-rule:evenodd;"
points="68713,33222
69186,32748
69715,33277
69242,33750
68713,33222
" /> 
<polyline style="fill-rule:evenodd;"
points="68388,33070
67775,33683
67163,33070
67775,32458
68388,33070
" /> 
<circle cx="67068.5" cy="32363.8" r="433.071" /> 
</g>
<g style="fill:#000000; fill-opacity:1.0; 
stroke:#000000; stroke-width:39.3701; stroke-opacity:1; 
stroke-linecap:round; stroke-linejoin:round;">
</g> 
</svg>
