G04 #@! TF.FileFunction,Copper,L1,Top,Mixed*
%FSLAX46Y46*%
G04 Gerber Fmt 4.6, Leading zero omitted, Abs format (unit mm)*
G04 Created by KiCad (PCBNEW 4.0.4-stable) date Wed Mar 21 18:36:50 2018*
%MOMM*%
%LPD*%
G01*
G04 APERTURE LIST*
%ADD10C,0.100000*%
%ADD11C,0.200000*%
%ADD12R,1.143000X0.508000*%
%ADD13R,1.200000X0.900000*%
%ADD14R,0.600000X2.200000*%
%ADD15R,3.450000X2.150000*%
%ADD16R,2.000000X2.400000*%
%ADD17R,1.350000X0.400000*%
%ADD18O,0.950000X1.250000*%
%ADD19O,1.550000X1.000000*%
%ADD20C,4.000000*%
%ADD21R,2.000000X3.100000*%
%ADD22R,2.200000X3.100000*%
%ADD23R,3.600000X2.700000*%
%ADD24R,2.700000X3.100000*%
%ADD25C,1.600000*%
%ADD26R,1.250000X1.500000*%
%ADD27R,1.500000X1.250000*%
%ADD28R,1.500000X1.300000*%
%ADD29R,1.300000X1.500000*%
%ADD30R,0.450000X1.750000*%
%ADD31R,1.550000X0.600000*%
%ADD32C,1.800000*%
%ADD33C,0.600000*%
%ADD34C,0.800000*%
%ADD35C,0.250000*%
%ADD36C,0.500000*%
G04 APERTURE END LIST*
D10*
D11*
X155871427Y-81561905D02*
X155871427Y-80761905D01*
X156176189Y-80761905D01*
X156252380Y-80800000D01*
X156290475Y-80838095D01*
X156328570Y-80914286D01*
X156328570Y-81028571D01*
X156290475Y-81104762D01*
X156252380Y-81142857D01*
X156176189Y-81180952D01*
X155871427Y-81180952D01*
X157014284Y-81561905D02*
X157014284Y-81142857D01*
X156976189Y-81066667D01*
X156899999Y-81028571D01*
X156747618Y-81028571D01*
X156671427Y-81066667D01*
X157014284Y-81523810D02*
X156938094Y-81561905D01*
X156747618Y-81561905D01*
X156671427Y-81523810D01*
X156633332Y-81447619D01*
X156633332Y-81371429D01*
X156671427Y-81295238D01*
X156747618Y-81257143D01*
X156938094Y-81257143D01*
X157014284Y-81219048D01*
X157738094Y-81028571D02*
X157738094Y-81561905D01*
X157395237Y-81028571D02*
X157395237Y-81447619D01*
X157433332Y-81523810D01*
X157509523Y-81561905D01*
X157623809Y-81561905D01*
X157699999Y-81523810D01*
X157738094Y-81485714D01*
X158233333Y-81561905D02*
X158157142Y-81523810D01*
X158119047Y-81447619D01*
X158119047Y-80761905D01*
X159604762Y-81485714D02*
X159566667Y-81523810D01*
X159452381Y-81561905D01*
X159376191Y-81561905D01*
X159261905Y-81523810D01*
X159185714Y-81447619D01*
X159147619Y-81371429D01*
X159109524Y-81219048D01*
X159109524Y-81104762D01*
X159147619Y-80952381D01*
X159185714Y-80876190D01*
X159261905Y-80800000D01*
X159376191Y-80761905D01*
X159452381Y-80761905D01*
X159566667Y-80800000D01*
X159604762Y-80838095D01*
X160290476Y-81561905D02*
X160290476Y-81142857D01*
X160252381Y-81066667D01*
X160176191Y-81028571D01*
X160023810Y-81028571D01*
X159947619Y-81066667D01*
X160290476Y-81523810D02*
X160214286Y-81561905D01*
X160023810Y-81561905D01*
X159947619Y-81523810D01*
X159909524Y-81447619D01*
X159909524Y-81371429D01*
X159947619Y-81295238D01*
X160023810Y-81257143D01*
X160214286Y-81257143D01*
X160290476Y-81219048D01*
X160671429Y-81561905D02*
X160671429Y-81028571D01*
X160671429Y-81104762D02*
X160709524Y-81066667D01*
X160785715Y-81028571D01*
X160900001Y-81028571D01*
X160976191Y-81066667D01*
X161014286Y-81142857D01*
X161014286Y-81561905D01*
X161014286Y-81142857D02*
X161052382Y-81066667D01*
X161128572Y-81028571D01*
X161242858Y-81028571D01*
X161319048Y-81066667D01*
X161357143Y-81142857D01*
X161357143Y-81561905D01*
X161738096Y-81028571D02*
X161738096Y-81828571D01*
X161738096Y-81066667D02*
X161814287Y-81028571D01*
X161966668Y-81028571D01*
X162042858Y-81066667D01*
X162080953Y-81104762D01*
X162119049Y-81180952D01*
X162119049Y-81409524D01*
X162080953Y-81485714D01*
X162042858Y-81523810D01*
X161966668Y-81561905D01*
X161814287Y-81561905D01*
X161738096Y-81523810D01*
X162461906Y-81561905D02*
X162461906Y-80761905D01*
X162461906Y-81066667D02*
X162538097Y-81028571D01*
X162690478Y-81028571D01*
X162766668Y-81066667D01*
X162804763Y-81104762D01*
X162842859Y-81180952D01*
X162842859Y-81409524D01*
X162804763Y-81485714D01*
X162766668Y-81523810D01*
X162690478Y-81561905D01*
X162538097Y-81561905D01*
X162461906Y-81523810D01*
X163490478Y-81523810D02*
X163414288Y-81561905D01*
X163261907Y-81561905D01*
X163185716Y-81523810D01*
X163147621Y-81447619D01*
X163147621Y-81142857D01*
X163185716Y-81066667D01*
X163261907Y-81028571D01*
X163414288Y-81028571D01*
X163490478Y-81066667D01*
X163528573Y-81142857D01*
X163528573Y-81219048D01*
X163147621Y-81295238D01*
X163985716Y-81561905D02*
X163909525Y-81523810D01*
X163871430Y-81447619D01*
X163871430Y-80761905D01*
X164404764Y-81561905D02*
X164328573Y-81523810D01*
X164290478Y-81447619D01*
X164290478Y-80761905D01*
X158728571Y-82238095D02*
X158766666Y-82200000D01*
X158842857Y-82161905D01*
X159033333Y-82161905D01*
X159109523Y-82200000D01*
X159147619Y-82238095D01*
X159185714Y-82314286D01*
X159185714Y-82390476D01*
X159147619Y-82504762D01*
X158690476Y-82961905D01*
X159185714Y-82961905D01*
X159680952Y-82161905D02*
X159757143Y-82161905D01*
X159833333Y-82200000D01*
X159871428Y-82238095D01*
X159909524Y-82314286D01*
X159947619Y-82466667D01*
X159947619Y-82657143D01*
X159909524Y-82809524D01*
X159871428Y-82885714D01*
X159833333Y-82923810D01*
X159757143Y-82961905D01*
X159680952Y-82961905D01*
X159604762Y-82923810D01*
X159566666Y-82885714D01*
X159528571Y-82809524D01*
X159490476Y-82657143D01*
X159490476Y-82466667D01*
X159528571Y-82314286D01*
X159566666Y-82238095D01*
X159604762Y-82200000D01*
X159680952Y-82161905D01*
X160709524Y-82961905D02*
X160252381Y-82961905D01*
X160480952Y-82961905D02*
X160480952Y-82161905D01*
X160404762Y-82276190D01*
X160328571Y-82352381D01*
X160252381Y-82390476D01*
X161166667Y-82504762D02*
X161090476Y-82466667D01*
X161052381Y-82428571D01*
X161014286Y-82352381D01*
X161014286Y-82314286D01*
X161052381Y-82238095D01*
X161090476Y-82200000D01*
X161166667Y-82161905D01*
X161319048Y-82161905D01*
X161395238Y-82200000D01*
X161433334Y-82238095D01*
X161471429Y-82314286D01*
X161471429Y-82352381D01*
X161433334Y-82428571D01*
X161395238Y-82466667D01*
X161319048Y-82504762D01*
X161166667Y-82504762D01*
X161090476Y-82542857D01*
X161052381Y-82580952D01*
X161014286Y-82657143D01*
X161014286Y-82809524D01*
X161052381Y-82885714D01*
X161090476Y-82923810D01*
X161166667Y-82961905D01*
X161319048Y-82961905D01*
X161395238Y-82923810D01*
X161433334Y-82885714D01*
X161471429Y-82809524D01*
X161471429Y-82657143D01*
X161433334Y-82580952D01*
X161395238Y-82542857D01*
X161319048Y-82504762D01*
X129657142Y-111661905D02*
X129657142Y-110861905D01*
X129961904Y-110861905D01*
X130038095Y-110900000D01*
X130076190Y-110938095D01*
X130114285Y-111014286D01*
X130114285Y-111128571D01*
X130076190Y-111204762D01*
X130038095Y-111242857D01*
X129961904Y-111280952D01*
X129657142Y-111280952D01*
X130914285Y-111585714D02*
X130876190Y-111623810D01*
X130761904Y-111661905D01*
X130685714Y-111661905D01*
X130571428Y-111623810D01*
X130495237Y-111547619D01*
X130457142Y-111471429D01*
X130419047Y-111319048D01*
X130419047Y-111204762D01*
X130457142Y-111052381D01*
X130495237Y-110976190D01*
X130571428Y-110900000D01*
X130685714Y-110861905D01*
X130761904Y-110861905D01*
X130876190Y-110900000D01*
X130914285Y-110938095D01*
X131257142Y-111661905D02*
X131257142Y-110861905D01*
X131523809Y-111433333D01*
X131790476Y-110861905D01*
X131790476Y-111661905D01*
X132133333Y-110938095D02*
X132171428Y-110900000D01*
X132247619Y-110861905D01*
X132438095Y-110861905D01*
X132514285Y-110900000D01*
X132552381Y-110938095D01*
X132590476Y-111014286D01*
X132590476Y-111090476D01*
X132552381Y-111204762D01*
X132095238Y-111661905D01*
X132590476Y-111661905D01*
X132971428Y-111661905D02*
X133123809Y-111661905D01*
X133200000Y-111623810D01*
X133238095Y-111585714D01*
X133314286Y-111471429D01*
X133352381Y-111319048D01*
X133352381Y-111014286D01*
X133314286Y-110938095D01*
X133276190Y-110900000D01*
X133200000Y-110861905D01*
X133047619Y-110861905D01*
X132971428Y-110900000D01*
X132933333Y-110938095D01*
X132895238Y-111014286D01*
X132895238Y-111204762D01*
X132933333Y-111280952D01*
X132971428Y-111319048D01*
X133047619Y-111357143D01*
X133200000Y-111357143D01*
X133276190Y-111319048D01*
X133314286Y-111280952D01*
X133352381Y-111204762D01*
X133847619Y-110861905D02*
X133923810Y-110861905D01*
X134000000Y-110900000D01*
X134038095Y-110938095D01*
X134076191Y-111014286D01*
X134114286Y-111166667D01*
X134114286Y-111357143D01*
X134076191Y-111509524D01*
X134038095Y-111585714D01*
X134000000Y-111623810D01*
X133923810Y-111661905D01*
X133847619Y-111661905D01*
X133771429Y-111623810D01*
X133733333Y-111585714D01*
X133695238Y-111509524D01*
X133657143Y-111357143D01*
X133657143Y-111166667D01*
X133695238Y-111014286D01*
X133733333Y-110938095D01*
X133771429Y-110900000D01*
X133847619Y-110861905D01*
X134800000Y-111128571D02*
X134800000Y-111661905D01*
X134609524Y-110823810D02*
X134419048Y-111395238D01*
X134914286Y-111395238D01*
X135828572Y-110861905D02*
X135828572Y-111509524D01*
X135866667Y-111585714D01*
X135904763Y-111623810D01*
X135980953Y-111661905D01*
X136133334Y-111661905D01*
X136209525Y-111623810D01*
X136247620Y-111585714D01*
X136285715Y-111509524D01*
X136285715Y-110861905D01*
X136628572Y-111623810D02*
X136742858Y-111661905D01*
X136933334Y-111661905D01*
X137009524Y-111623810D01*
X137047620Y-111585714D01*
X137085715Y-111509524D01*
X137085715Y-111433333D01*
X137047620Y-111357143D01*
X137009524Y-111319048D01*
X136933334Y-111280952D01*
X136780953Y-111242857D01*
X136704762Y-111204762D01*
X136666667Y-111166667D01*
X136628572Y-111090476D01*
X136628572Y-111014286D01*
X136666667Y-110938095D01*
X136704762Y-110900000D01*
X136780953Y-110861905D01*
X136971429Y-110861905D01*
X137085715Y-110900000D01*
X137695239Y-111242857D02*
X137809525Y-111280952D01*
X137847620Y-111319048D01*
X137885715Y-111395238D01*
X137885715Y-111509524D01*
X137847620Y-111585714D01*
X137809525Y-111623810D01*
X137733334Y-111661905D01*
X137428572Y-111661905D01*
X137428572Y-110861905D01*
X137695239Y-110861905D01*
X137771429Y-110900000D01*
X137809525Y-110938095D01*
X137847620Y-111014286D01*
X137847620Y-111090476D01*
X137809525Y-111166667D01*
X137771429Y-111204762D01*
X137695239Y-111242857D01*
X137428572Y-111242857D01*
X138838096Y-111661905D02*
X138838096Y-110861905D01*
X139028572Y-110861905D01*
X139142858Y-110900000D01*
X139219049Y-110976190D01*
X139257144Y-111052381D01*
X139295239Y-111204762D01*
X139295239Y-111319048D01*
X139257144Y-111471429D01*
X139219049Y-111547619D01*
X139142858Y-111623810D01*
X139028572Y-111661905D01*
X138838096Y-111661905D01*
X139600001Y-111433333D02*
X139980953Y-111433333D01*
X139523810Y-111661905D02*
X139790477Y-110861905D01*
X140057144Y-111661905D01*
X140780953Y-111585714D02*
X140742858Y-111623810D01*
X140628572Y-111661905D01*
X140552382Y-111661905D01*
X140438096Y-111623810D01*
X140361905Y-111547619D01*
X140323810Y-111471429D01*
X140285715Y-111319048D01*
X140285715Y-111204762D01*
X140323810Y-111052381D01*
X140361905Y-110976190D01*
X140438096Y-110900000D01*
X140552382Y-110861905D01*
X140628572Y-110861905D01*
X140742858Y-110900000D01*
X140780953Y-110938095D01*
D12*
X154895004Y-89635946D03*
X154895004Y-90905946D03*
X154895004Y-92175946D03*
X154895004Y-93445946D03*
X148545004Y-93445946D03*
X148545004Y-92175946D03*
X148545004Y-90905946D03*
X148545004Y-89635946D03*
D13*
X121700000Y-89450000D03*
X121700000Y-86150000D03*
D14*
X115287236Y-98998500D03*
X117827236Y-98998500D03*
D15*
X116557236Y-105298500D03*
D14*
X116557236Y-98998500D03*
X114017236Y-98998500D03*
X119097236Y-98998500D03*
D16*
X131076540Y-105936000D03*
X127376540Y-105936000D03*
D17*
X115600000Y-85950000D03*
X115600000Y-86600000D03*
X115600000Y-87250000D03*
X115600000Y-87900000D03*
X115600000Y-88550000D03*
D18*
X115600000Y-84750000D03*
X115600000Y-89750000D03*
D19*
X112900000Y-83750000D03*
X112900000Y-90750000D03*
D20*
X127136000Y-82219000D03*
X167136000Y-110719000D03*
D21*
X180100000Y-96100000D03*
D22*
X177400000Y-96100000D03*
D23*
X165700000Y-91900000D03*
D22*
X179300000Y-87700000D03*
D24*
X170000000Y-87700000D03*
D25*
X178200000Y-91900000D03*
X171200000Y-91900000D03*
D21*
X180100000Y-109500000D03*
D22*
X177400000Y-109500000D03*
D23*
X165700000Y-105300000D03*
D22*
X179300000Y-101100000D03*
D24*
X170000000Y-101100000D03*
D25*
X178200000Y-105300000D03*
X171200000Y-105300000D03*
D26*
X114000000Y-95886000D03*
X114000000Y-93386000D03*
X129676540Y-89036000D03*
X129676540Y-86536000D03*
X122550000Y-92600000D03*
X122550000Y-95100000D03*
X122550000Y-99850000D03*
X122550000Y-97350000D03*
X135800000Y-92550000D03*
X135800000Y-95050000D03*
X135800000Y-99850000D03*
X135800000Y-97350000D03*
X134000000Y-107000000D03*
X134000000Y-104500000D03*
X124500000Y-107000000D03*
X124500000Y-104500000D03*
D27*
X155970004Y-98040946D03*
X153470004Y-98040946D03*
X147970004Y-98040946D03*
X150470004Y-98040946D03*
X161470004Y-107040946D03*
X158970004Y-107040946D03*
X142470004Y-107040946D03*
X144970004Y-107040946D03*
X147970004Y-95540946D03*
X150470004Y-95540946D03*
X155970004Y-95540946D03*
X153470004Y-95540946D03*
X142470004Y-87040946D03*
X144970004Y-87040946D03*
X161470004Y-87009946D03*
X158970004Y-87009946D03*
D28*
X116457236Y-96000000D03*
X119157236Y-96000000D03*
D29*
X132176540Y-89136000D03*
X132176540Y-86436000D03*
D28*
X119157236Y-93250000D03*
X116457236Y-93250000D03*
D29*
X127176540Y-89136000D03*
X127176540Y-86436000D03*
X137176540Y-89136000D03*
X137176540Y-86436000D03*
X134676540Y-89136000D03*
X134676540Y-86436000D03*
D28*
X130576540Y-102436000D03*
X127876540Y-102436000D03*
X158870004Y-102040946D03*
X161570004Y-102040946D03*
X145070004Y-102040946D03*
X142370004Y-102040946D03*
X158870004Y-99540946D03*
X161570004Y-99540946D03*
X145070004Y-99540946D03*
X142370004Y-99540946D03*
X158870004Y-104540946D03*
X161570004Y-104540946D03*
X145070004Y-104540946D03*
X142370004Y-104540946D03*
X156070004Y-107040946D03*
X153370004Y-107040946D03*
X147870004Y-107040946D03*
X150570004Y-107040946D03*
X145070004Y-92009946D03*
X142370004Y-92009946D03*
X158870004Y-92009946D03*
X161570004Y-92009946D03*
X145070004Y-94509946D03*
X142370004Y-94509946D03*
X158870004Y-94509946D03*
X161570004Y-94509946D03*
X145070004Y-89509946D03*
X142370004Y-89509946D03*
X158870004Y-89509946D03*
X161570004Y-89509946D03*
X147870004Y-87009946D03*
X150570004Y-87009946D03*
X156070004Y-87009946D03*
X153370004Y-87009946D03*
D26*
X124450000Y-89050000D03*
X124450000Y-86550000D03*
X136500000Y-104500000D03*
X136500000Y-107000000D03*
D27*
X153500000Y-109500000D03*
X156000000Y-109500000D03*
X148000000Y-109500000D03*
X150500000Y-109500000D03*
X144970004Y-97040946D03*
X142470004Y-97040946D03*
X164250000Y-101000000D03*
X166750000Y-101000000D03*
X172000000Y-109750000D03*
X174500000Y-109750000D03*
X166750000Y-87750000D03*
X164250000Y-87750000D03*
X172500000Y-96250000D03*
X170000000Y-96250000D03*
X158970004Y-97040946D03*
X161470004Y-97040946D03*
X150500000Y-84750000D03*
X148000000Y-84750000D03*
X156000000Y-84750000D03*
X153500000Y-84750000D03*
D30*
X133425000Y-92600000D03*
X132775000Y-92600000D03*
X132125000Y-92600000D03*
X131475000Y-92600000D03*
X130825000Y-92600000D03*
X130175000Y-92600000D03*
X129525000Y-92600000D03*
X128875000Y-92600000D03*
X128225000Y-92600000D03*
X127575000Y-92600000D03*
X126925000Y-92600000D03*
X126275000Y-92600000D03*
X125625000Y-92600000D03*
X124975000Y-92600000D03*
X124975000Y-99800000D03*
X125625000Y-99800000D03*
X126275000Y-99800000D03*
X126925000Y-99800000D03*
X127575000Y-99800000D03*
X128225000Y-99800000D03*
X128875000Y-99800000D03*
X129525000Y-99800000D03*
X130175000Y-99800000D03*
X130825000Y-99800000D03*
X131475000Y-99800000D03*
X132125000Y-99800000D03*
X132775000Y-99800000D03*
X133425000Y-99800000D03*
D31*
X154520004Y-104345946D03*
X154520004Y-103075946D03*
X154520004Y-101805946D03*
X154520004Y-100535946D03*
X149120004Y-100535946D03*
X149120004Y-101805946D03*
X149120004Y-103075946D03*
X149120004Y-104345946D03*
D10*
G36*
X172905457Y-82474695D02*
X173824695Y-81555457D01*
X174885355Y-82616117D01*
X173966117Y-83535355D01*
X172905457Y-82474695D01*
X172905457Y-82474695D01*
G37*
G36*
X174814645Y-84383883D02*
X175733883Y-83464645D01*
X176794543Y-84525305D01*
X175875305Y-85444543D01*
X174814645Y-84383883D01*
X174814645Y-84383883D01*
G37*
G36*
X173422792Y-84000000D02*
X172150000Y-85272792D01*
X170877208Y-84000000D01*
X172150000Y-82727208D01*
X173422792Y-84000000D01*
X173422792Y-84000000D01*
G37*
D32*
X170353949Y-82203949D03*
D33*
X112700000Y-93400000D03*
X137000000Y-92700000D03*
X126400000Y-101300000D03*
X130199986Y-101200000D03*
X125800000Y-86600000D03*
X130900000Y-86500000D03*
X177000000Y-87750000D03*
X177000000Y-101000000D03*
X163250000Y-97000000D03*
X152000000Y-98040946D03*
X152000000Y-95540946D03*
X149750000Y-93500000D03*
X141000000Y-97250000D03*
X137250000Y-99750000D03*
X119250000Y-105250000D03*
X113750000Y-105250000D03*
X136500000Y-108500000D03*
X133750000Y-108500000D03*
X125000000Y-108500000D03*
X122500000Y-101500000D03*
X116500000Y-102500000D03*
X116500000Y-101750000D03*
X116500000Y-101000000D03*
X130750000Y-94250000D03*
X127500000Y-94000000D03*
X123750000Y-92500000D03*
X119000000Y-91750000D03*
X163482680Y-107868014D03*
X163000000Y-102200000D03*
X164000000Y-103200000D03*
X163200000Y-109200000D03*
X132000000Y-97774990D03*
X133200000Y-96800000D03*
X128800000Y-94400000D03*
X132800000Y-98400000D03*
X133800000Y-97600000D03*
X133450000Y-86700000D03*
X132200000Y-83900000D03*
X137200000Y-87800000D03*
X128400000Y-86800000D03*
X147400000Y-92200000D03*
X140400000Y-90800000D03*
X147200000Y-100800000D03*
X142000000Y-100800000D03*
X157000000Y-105250000D03*
X157000000Y-103000000D03*
X146400000Y-104200000D03*
X147650011Y-104200000D03*
X156319662Y-94080338D03*
X163321978Y-92878022D03*
X147000000Y-94200000D03*
X143800000Y-92000000D03*
X147041949Y-90958051D03*
X147000000Y-89250000D03*
X157059139Y-92217894D03*
X157000000Y-88500000D03*
X139200000Y-88400000D03*
X140600000Y-87000000D03*
D34*
X128850000Y-90800000D03*
X131400000Y-90800000D03*
X139250000Y-95700000D03*
X138950000Y-91850000D03*
X124700000Y-90800000D03*
D33*
X156450002Y-93050000D03*
X143400000Y-95750000D03*
X123000000Y-87000000D03*
X156200000Y-90000000D03*
X157400000Y-94800000D03*
X157400000Y-96400000D03*
X146600000Y-97000000D03*
X146600000Y-99000000D03*
X151800000Y-100800000D03*
X151400000Y-102400000D03*
X151400000Y-105200000D03*
X149200000Y-105200000D03*
D35*
X175804594Y-84454594D02*
X175804594Y-86554594D01*
X175804594Y-86554594D02*
X177000000Y-87750000D01*
X114000000Y-93386000D02*
X112714000Y-93386000D01*
X112714000Y-93386000D02*
X112700000Y-93400000D01*
X131475000Y-92600000D02*
X130825000Y-92600000D01*
X130175000Y-92600000D02*
X130825000Y-92600000D01*
X135800000Y-92550000D02*
X136850000Y-92550000D01*
X136850000Y-92550000D02*
X137000000Y-92700000D01*
X126925000Y-99800000D02*
X126925000Y-100775000D01*
X126925000Y-100775000D02*
X126400000Y-101300000D01*
X132125000Y-99800000D02*
X132125000Y-100925000D01*
X132125000Y-100925000D02*
X131850000Y-101200000D01*
X131850000Y-101200000D02*
X130624250Y-101200000D01*
X130624250Y-101200000D02*
X130199986Y-101200000D01*
X129525000Y-99800000D02*
X129525000Y-100925000D01*
X130550000Y-101200000D02*
X130199986Y-101200000D01*
X129525000Y-100925000D02*
X129800000Y-101200000D01*
X130825000Y-100925000D02*
X130550000Y-101200000D01*
X129800000Y-101200000D02*
X130199986Y-101200000D01*
X130825000Y-99800000D02*
X130825000Y-100925000D01*
X124450000Y-86550000D02*
X125750000Y-86550000D01*
X125750000Y-86550000D02*
X125800000Y-86600000D01*
X130864000Y-86536000D02*
X130900000Y-86500000D01*
X129676540Y-86536000D02*
X130864000Y-86536000D01*
X179300000Y-87700000D02*
X177050000Y-87700000D01*
X177050000Y-87700000D02*
X177000000Y-87750000D01*
X179300000Y-101100000D02*
X177100000Y-101100000D01*
X177100000Y-101100000D02*
X177000000Y-101000000D01*
X161470004Y-97040946D02*
X163209054Y-97040946D01*
X163209054Y-97040946D02*
X163250000Y-97000000D01*
X154520004Y-100535946D02*
X154520004Y-98965946D01*
X154520004Y-98965946D02*
X153595004Y-98040946D01*
X153595004Y-98040946D02*
X153470004Y-98040946D01*
X151470004Y-98040946D02*
X152000000Y-98040946D01*
X153470004Y-98040946D02*
X152000000Y-98040946D01*
X150470004Y-98040946D02*
X151470004Y-98040946D01*
X152000000Y-95540946D02*
X153470004Y-95540946D01*
X151470004Y-95540946D02*
X152000000Y-95540946D01*
X150470004Y-95540946D02*
X151470004Y-95540946D01*
X148545004Y-93445946D02*
X149695946Y-93445946D01*
X149695946Y-93445946D02*
X149750000Y-93500000D01*
X142470004Y-97040946D02*
X141209054Y-97040946D01*
X141209054Y-97040946D02*
X141000000Y-97250000D01*
X135800000Y-99850000D02*
X137150000Y-99850000D01*
X137150000Y-99850000D02*
X137250000Y-99750000D01*
X116557236Y-105298500D02*
X119201500Y-105298500D01*
X119201500Y-105298500D02*
X119250000Y-105250000D01*
X116557236Y-105298500D02*
X113798500Y-105298500D01*
X113798500Y-105298500D02*
X113750000Y-105250000D01*
X136500000Y-107000000D02*
X136500000Y-108500000D01*
X134000000Y-107000000D02*
X134000000Y-108250000D01*
X134000000Y-108250000D02*
X133750000Y-108500000D01*
X124500000Y-107000000D02*
X124500000Y-108000000D01*
X124500000Y-108000000D02*
X125000000Y-108500000D01*
X122550000Y-99850000D02*
X122550000Y-101450000D01*
X122550000Y-101450000D02*
X122500000Y-101500000D01*
X116500000Y-101750000D02*
X116500000Y-102500000D01*
X116557236Y-98998500D02*
X116557236Y-100942764D01*
X116557236Y-100942764D02*
X116500000Y-101000000D01*
X130825000Y-92600000D02*
X130825000Y-94175000D01*
X130825000Y-94175000D02*
X130750000Y-94250000D01*
X129525000Y-92600000D02*
X131475000Y-92600000D01*
X126925000Y-92600000D02*
X126925000Y-93725000D01*
X126925000Y-93725000D02*
X127200000Y-94000000D01*
X127200000Y-94000000D02*
X127500000Y-94000000D01*
X122550000Y-92600000D02*
X123650000Y-92600000D01*
X123650000Y-92600000D02*
X123750000Y-92500000D01*
X119157236Y-93250000D02*
X119157236Y-91907236D01*
X119157236Y-91907236D02*
X119000000Y-91750000D01*
X115600000Y-88550000D02*
X115600000Y-89750000D01*
X127876540Y-102436000D02*
X127876540Y-105436000D01*
X127876540Y-105436000D02*
X127376540Y-105936000D01*
X127876540Y-102436000D02*
X127876540Y-101536000D01*
X127876540Y-101536000D02*
X128225000Y-101187540D01*
X128225000Y-101187540D02*
X128225000Y-99800000D01*
X124500000Y-104500000D02*
X125940540Y-104500000D01*
X125940540Y-104500000D02*
X125954540Y-104486000D01*
X125954540Y-104486000D02*
X126126540Y-104486000D01*
X126126540Y-104486000D02*
X127376540Y-105736000D01*
X127376540Y-105736000D02*
X127376540Y-105936000D01*
X163482680Y-103717320D02*
X163482680Y-107868014D01*
X164000000Y-103200000D02*
X163482680Y-103717320D01*
X163000000Y-102200000D02*
X161729058Y-102200000D01*
X161729058Y-102200000D02*
X161570004Y-102040946D01*
X156000000Y-109500000D02*
X162900000Y-109500000D01*
X162900000Y-109500000D02*
X163200000Y-109200000D01*
X132176540Y-92548460D02*
X132176540Y-88936000D01*
X132176540Y-92548460D02*
X132125000Y-92600000D01*
X129676540Y-89036000D02*
X132076540Y-89036000D01*
X132076540Y-89036000D02*
X132176540Y-89136000D01*
X131075010Y-97774990D02*
X132000000Y-97774990D01*
X130175000Y-98675000D02*
X131075010Y-97774990D01*
X130175000Y-99800000D02*
X130175000Y-98675000D01*
X135800000Y-95050000D02*
X135800000Y-95175000D01*
X135800000Y-95175000D02*
X134175000Y-96800000D01*
X134175000Y-96800000D02*
X133200000Y-96800000D01*
X128875000Y-94325000D02*
X128800000Y-94400000D01*
X128875000Y-92600000D02*
X128875000Y-94325000D01*
X132775000Y-99800000D02*
X133425000Y-99800000D01*
X132800000Y-98400000D02*
X132800000Y-99775000D01*
X132800000Y-99775000D02*
X132775000Y-99800000D01*
X135800000Y-97350000D02*
X134050000Y-97350000D01*
X134050000Y-97350000D02*
X133800000Y-97600000D01*
X127176540Y-90251540D02*
X127176540Y-88936000D01*
X128225000Y-92600000D02*
X128875000Y-92600000D01*
X128875000Y-92600000D02*
X128875000Y-91950000D01*
X128875000Y-91950000D02*
X127176540Y-90251540D01*
X127176540Y-89451540D02*
X127176540Y-89136000D01*
X133450000Y-86700000D02*
X132440540Y-86700000D01*
X132440540Y-86700000D02*
X132176540Y-86436000D01*
X140800000Y-83000000D02*
X139900000Y-83900000D01*
X139900000Y-83900000D02*
X132200000Y-83900000D01*
X156600000Y-83000000D02*
X140800000Y-83000000D01*
X157750000Y-84150000D02*
X156600000Y-83000000D01*
X167135106Y-84150000D02*
X157750000Y-84150000D01*
X170353949Y-82203949D02*
X169081157Y-82203949D01*
X169081157Y-82203949D02*
X167135106Y-84150000D01*
X117200000Y-86625000D02*
X116525000Y-85950000D01*
X116525000Y-85950000D02*
X115600000Y-85950000D01*
X117200000Y-90300000D02*
X117200000Y-86625000D01*
X115500000Y-92000000D02*
X117200000Y-90300000D01*
X113000000Y-92000000D02*
X115500000Y-92000000D01*
X112074998Y-92925002D02*
X113000000Y-92000000D01*
X112074998Y-93835998D02*
X112074998Y-92925002D01*
X114000000Y-95886000D02*
X114000000Y-95761000D01*
X114000000Y-95761000D02*
X112074998Y-93835998D01*
X119097236Y-100348500D02*
X119097236Y-98998500D01*
X116800002Y-103125002D02*
X119097236Y-100827768D01*
X116199998Y-103125002D02*
X116800002Y-103125002D01*
X114017236Y-100942240D02*
X116199998Y-103125002D01*
X114017236Y-98998500D02*
X114017236Y-100942240D01*
X119097236Y-100827768D02*
X119097236Y-100348500D01*
X115600000Y-85950000D02*
X119313590Y-85950000D01*
X119313590Y-85950000D02*
X121163590Y-87800000D01*
X121163590Y-87800000D02*
X130912540Y-87800000D01*
X130912540Y-87800000D02*
X132176540Y-86536000D01*
X132176540Y-86536000D02*
X132176540Y-86436000D01*
X114000000Y-95886000D02*
X114000000Y-98981264D01*
X114000000Y-98981264D02*
X114017236Y-98998500D01*
X128875000Y-101000004D02*
X128875000Y-100925000D01*
X130310996Y-102436000D02*
X128875000Y-101000004D01*
X128875000Y-100925000D02*
X128875000Y-99800000D01*
X130576540Y-102436000D02*
X130310996Y-102436000D01*
X130576540Y-102436000D02*
X130576540Y-105436000D01*
X130576540Y-105436000D02*
X131076540Y-105936000D01*
X134000000Y-104500000D02*
X132512540Y-104500000D01*
X132512540Y-104500000D02*
X132498540Y-104486000D01*
X131076540Y-105736000D02*
X131076540Y-105936000D01*
X132498540Y-104486000D02*
X132326540Y-104486000D01*
X132326540Y-104486000D02*
X131076540Y-105736000D01*
X150500000Y-109500000D02*
X149960002Y-109500000D01*
X149960002Y-109500000D02*
X148710002Y-108250000D01*
X148710002Y-108250000D02*
X141500000Y-108250000D01*
X141500000Y-108250000D02*
X141000000Y-107750000D01*
X141000000Y-107750000D02*
X141000000Y-103310950D01*
X141000000Y-103310950D02*
X142270004Y-102040946D01*
X142270004Y-102040946D02*
X142370004Y-102040946D01*
X141845004Y-102040946D02*
X142370004Y-102040946D01*
X114675000Y-87250000D02*
X115600000Y-87250000D01*
X111896448Y-81250000D02*
X111000000Y-82146448D01*
X111000000Y-82146448D02*
X111000000Y-85603552D01*
X115603552Y-81250000D02*
X111896448Y-81250000D01*
X112646448Y-87250000D02*
X114675000Y-87250000D01*
X135640529Y-84799989D02*
X124549989Y-84799989D01*
X124549989Y-84799989D02*
X123000000Y-83250000D01*
X123000000Y-83250000D02*
X117603552Y-83250000D01*
X137176540Y-86336000D02*
X135640529Y-84799989D01*
X117603552Y-83250000D02*
X115603552Y-81250000D01*
X137176540Y-86436000D02*
X137176540Y-86336000D01*
X111000000Y-85603552D02*
X112646448Y-87250000D01*
X137200000Y-87800000D02*
X137200000Y-86459460D01*
X137200000Y-86459460D02*
X137176540Y-86436000D01*
X127176540Y-86436000D02*
X128036000Y-86436000D01*
X128036000Y-86436000D02*
X128400000Y-86800000D01*
X119407521Y-84516757D02*
X119400000Y-84450000D01*
X121265450Y-83862954D02*
X121229709Y-83919835D01*
X132975542Y-85250000D02*
X124250000Y-85250000D01*
X134676540Y-86436000D02*
X134161542Y-86436000D01*
X120769834Y-84720291D02*
X120712953Y-84684550D01*
X134161542Y-86436000D02*
X132975542Y-85250000D01*
X119287046Y-83815451D02*
X119230165Y-83779710D01*
X124250000Y-85250000D02*
X122750000Y-83750000D01*
X122750000Y-83750000D02*
X121500000Y-83750000D01*
X121229709Y-83919835D02*
X121207521Y-83983244D01*
X120430165Y-83779710D02*
X120366756Y-83757522D01*
X120600000Y-84050000D02*
X120592478Y-83983244D01*
X121207521Y-83983244D02*
X121200000Y-84050000D01*
X119334549Y-83862954D02*
X119287046Y-83815451D01*
X121312953Y-83815451D02*
X121265450Y-83862954D01*
X121500000Y-83750000D02*
X121433243Y-83757522D01*
X121134549Y-84637047D02*
X121087046Y-84684550D01*
X120629709Y-84580166D02*
X120607521Y-84516757D01*
X120607521Y-84516757D02*
X120600000Y-84450000D01*
X121192478Y-84516757D02*
X121170290Y-84580166D01*
X121200000Y-84050000D02*
X121200000Y-84450000D01*
X121433243Y-83757522D02*
X121369834Y-83779710D01*
X121369834Y-83779710D02*
X121312953Y-83815451D01*
X120487046Y-83815451D02*
X120430165Y-83779710D01*
X120833243Y-84742479D02*
X120769834Y-84720291D01*
X121200000Y-84450000D02*
X121192478Y-84516757D01*
X120712953Y-84684550D02*
X120665450Y-84637047D01*
X120592478Y-83983244D02*
X120570290Y-83919835D01*
X120007521Y-83983244D02*
X120000000Y-84050000D01*
X120169834Y-83779710D02*
X120112953Y-83815451D01*
X120366756Y-83757522D02*
X120300000Y-83750000D01*
X121170290Y-84580166D02*
X121134549Y-84637047D01*
X120600000Y-84450000D02*
X120600000Y-84050000D01*
X119569834Y-84720291D02*
X119512953Y-84684550D01*
X119934549Y-84637047D02*
X119887046Y-84684550D01*
X119970290Y-84580166D02*
X119934549Y-84637047D01*
X120000000Y-84450000D02*
X119992478Y-84516757D01*
X120233243Y-83757522D02*
X120169834Y-83779710D01*
X120300000Y-83750000D02*
X120233243Y-83757522D01*
X121087046Y-84684550D02*
X121030165Y-84720291D01*
X121030165Y-84720291D02*
X120966756Y-84742479D01*
X120966756Y-84742479D02*
X120900000Y-84750000D01*
X120900000Y-84750000D02*
X120833243Y-84742479D01*
X113737046Y-81815451D02*
X113680165Y-81779710D01*
X120665450Y-84637047D02*
X120629709Y-84580166D01*
X120534549Y-83862954D02*
X120487046Y-83815451D01*
X120570290Y-83919835D02*
X120534549Y-83862954D01*
X113915450Y-82626839D02*
X113879709Y-82569958D01*
X119766756Y-84742479D02*
X119700000Y-84750000D01*
X119830165Y-84720291D02*
X119766756Y-84742479D01*
X120112953Y-83815451D02*
X120065450Y-83862954D01*
X119370290Y-83919835D02*
X119334549Y-83862954D01*
X120065450Y-83862954D02*
X120029709Y-83919835D01*
X120029709Y-83919835D02*
X120007521Y-83983244D01*
X120000000Y-84050000D02*
X120000000Y-84450000D01*
X114450000Y-82050000D02*
X114450000Y-82439792D01*
X114587500Y-86600000D02*
X115600000Y-86600000D01*
X119512953Y-84684550D02*
X119465450Y-84637047D01*
X119992478Y-84516757D02*
X119970290Y-84580166D01*
X119887046Y-84684550D02*
X119830165Y-84720291D01*
X113820290Y-81919835D02*
X113784549Y-81862954D01*
X119700000Y-84750000D02*
X119633243Y-84742479D01*
X119392478Y-83983244D02*
X119370290Y-83919835D01*
X119633243Y-84742479D02*
X119569834Y-84720291D01*
X119400000Y-84050000D02*
X119392478Y-83983244D01*
X119465450Y-84637047D02*
X119429709Y-84580166D01*
X119429709Y-84580166D02*
X119407521Y-84516757D01*
X119166756Y-83757522D02*
X119100000Y-83750000D01*
X114083243Y-82732271D02*
X114019834Y-82710083D01*
X112778552Y-86675000D02*
X114512500Y-86675000D01*
X119400000Y-84450000D02*
X119400000Y-84050000D01*
X119100000Y-83750000D02*
X117396448Y-83750000D01*
X119230165Y-83779710D02*
X119166756Y-83757522D01*
X117396448Y-83750000D02*
X115396448Y-81750000D01*
X115396448Y-81750000D02*
X114750000Y-81750000D01*
X114750000Y-81750000D02*
X114683243Y-81757522D01*
X114562953Y-81815451D02*
X114515450Y-81862954D01*
X114683243Y-81757522D02*
X114619834Y-81779710D01*
X114619834Y-81779710D02*
X114562953Y-81815451D01*
X114515450Y-81862954D02*
X114479709Y-81919835D01*
X114479709Y-81919835D02*
X114457521Y-81983244D01*
X114457521Y-81983244D02*
X114450000Y-82050000D01*
X114150000Y-82739792D02*
X114083243Y-82732271D01*
X114450000Y-82439792D02*
X114442478Y-82506549D01*
X114442478Y-82506549D02*
X114420290Y-82569958D01*
X113842478Y-81983244D02*
X113820290Y-81919835D01*
X114420290Y-82569958D02*
X114384549Y-82626839D01*
X114384549Y-82626839D02*
X114337046Y-82674342D01*
X114337046Y-82674342D02*
X114280165Y-82710083D01*
X114280165Y-82710083D02*
X114216756Y-82732271D01*
X114216756Y-82732271D02*
X114150000Y-82739792D01*
X113616756Y-81757522D02*
X113550000Y-81750000D01*
X114019834Y-82710083D02*
X113962953Y-82674342D01*
X113962953Y-82674342D02*
X113915450Y-82626839D01*
X113879709Y-82569958D02*
X113857521Y-82506549D01*
X113857521Y-82506549D02*
X113850000Y-82439792D01*
X113850000Y-82439792D02*
X113850000Y-82050000D01*
X113850000Y-82050000D02*
X113842478Y-81983244D01*
X113784549Y-81862954D02*
X113737046Y-81815451D01*
X113680165Y-81779710D02*
X113616756Y-81757522D01*
X111500000Y-82353552D02*
X111500000Y-85396448D01*
X113550000Y-81750000D02*
X112103552Y-81750000D01*
X112103552Y-81750000D02*
X111500000Y-82353552D01*
X111500000Y-85396448D02*
X112778552Y-86675000D01*
X114512500Y-86675000D02*
X114587500Y-86600000D01*
X134676540Y-86436000D02*
X134676540Y-86336000D01*
X116457236Y-96000000D02*
X116457236Y-93250000D01*
X115287236Y-98998500D02*
X115287236Y-97070000D01*
X115287236Y-97070000D02*
X116357236Y-96000000D01*
X116357236Y-96000000D02*
X116457236Y-96000000D01*
X137176540Y-89136000D02*
X137176540Y-89236000D01*
X134500000Y-90400000D02*
X133425000Y-91475000D01*
X137176540Y-89036000D02*
X135812540Y-90400000D01*
X135812540Y-90400000D02*
X134500000Y-90400000D01*
X133425000Y-91475000D02*
X133425000Y-92600000D01*
X134676540Y-89136000D02*
X134676540Y-89236000D01*
X134676540Y-89036000D02*
X132775000Y-90937540D01*
X132775000Y-90937540D02*
X132775000Y-92600000D01*
D36*
X126850000Y-90750000D02*
X127549999Y-91449999D01*
X124450000Y-89050000D02*
X124708004Y-89050000D01*
X124708004Y-89050000D02*
X126408004Y-90750000D01*
X126408004Y-90750000D02*
X126850000Y-90750000D01*
D35*
X127575000Y-92600000D02*
X127575000Y-91475000D01*
X127575000Y-91475000D02*
X127549999Y-91449999D01*
D36*
X121700000Y-89450000D02*
X124050000Y-89450000D01*
D35*
X124050000Y-89450000D02*
X124450000Y-89050000D01*
X140400000Y-91224264D02*
X140400000Y-90800000D01*
X140400000Y-96924996D02*
X140400000Y-91224264D01*
X140374998Y-96949998D02*
X140400000Y-96924996D01*
X140374998Y-99625002D02*
X140374998Y-96949998D01*
X136500000Y-103500000D02*
X140374998Y-99625002D01*
X124975000Y-93725000D02*
X124975000Y-92600000D01*
X136500000Y-103500000D02*
X134200000Y-101200000D01*
X127175024Y-95925024D02*
X124975000Y-93725000D01*
X131235026Y-95925024D02*
X127175024Y-95925024D01*
X134200000Y-98889998D02*
X131235026Y-95925024D01*
X134200000Y-101200000D02*
X134200000Y-98889998D01*
X147400000Y-92200000D02*
X148520950Y-92200000D01*
X148520950Y-92200000D02*
X148545004Y-92175946D01*
X147200000Y-100800000D02*
X148855950Y-100800000D01*
X148855950Y-100800000D02*
X149120004Y-100535946D01*
X136500000Y-104500000D02*
X137375000Y-104500000D01*
X137375000Y-104500000D02*
X141075000Y-100800000D01*
X141075000Y-100800000D02*
X142000000Y-100800000D01*
X136500000Y-104500000D02*
X136500000Y-103500000D01*
X154895004Y-93445946D02*
X150636504Y-93445946D01*
X150636504Y-93445946D02*
X149366504Y-92175946D01*
X149366504Y-92175946D02*
X148545004Y-92175946D01*
X151730950Y-101805946D02*
X154520004Y-101805946D01*
X150460950Y-100535946D02*
X151730950Y-101805946D01*
X149120004Y-100535946D02*
X150460950Y-100535946D01*
X127575000Y-99800000D02*
X127575000Y-98675000D01*
X127575000Y-98675000D02*
X124000000Y-95100000D01*
X124000000Y-95100000D02*
X122550000Y-95100000D01*
X126275000Y-99800000D02*
X126275000Y-98675000D01*
X124950000Y-97350000D02*
X122550000Y-97350000D01*
X126275000Y-98675000D02*
X124950000Y-97350000D01*
X153500000Y-109500000D02*
X153375000Y-109500000D01*
X153375000Y-109500000D02*
X153075000Y-109800000D01*
X153075000Y-109800000D02*
X152500000Y-109800000D01*
X152500000Y-109800000D02*
X151700000Y-110600000D01*
X151700000Y-110600000D02*
X146200000Y-110600000D01*
X146200000Y-110600000D02*
X145550010Y-109950010D01*
X145550010Y-109950010D02*
X124313600Y-109950010D01*
X124313600Y-109950010D02*
X122799989Y-108436400D01*
X122799989Y-108436400D02*
X122799989Y-103100011D01*
X122799989Y-103100011D02*
X124975000Y-100925000D01*
X124975000Y-100925000D02*
X124975000Y-99800000D01*
X123250000Y-103300000D02*
X125625000Y-100925000D01*
X148000000Y-109500000D02*
X124500000Y-109500000D01*
X124500000Y-109500000D02*
X123250000Y-108250000D01*
X123250000Y-108250000D02*
X123250000Y-103300000D01*
X125625000Y-100925000D02*
X125625000Y-99800000D01*
X158870004Y-102040946D02*
X158970004Y-102040946D01*
X158970004Y-102040946D02*
X161470004Y-104540946D01*
X161470004Y-104540946D02*
X161570004Y-104540946D01*
X161570004Y-99540946D02*
X161470004Y-99540946D01*
X161470004Y-99540946D02*
X158970004Y-102040946D01*
X155970004Y-98040946D02*
X160970004Y-98040946D01*
X160970004Y-98040946D02*
X161570004Y-98640946D01*
X161570004Y-98640946D02*
X161570004Y-99540946D01*
X147970004Y-98040946D02*
X142970004Y-98040946D01*
X142970004Y-98040946D02*
X142370004Y-98640946D01*
X142370004Y-98640946D02*
X142370004Y-99540946D01*
X145070004Y-102040946D02*
X144970004Y-102040946D01*
X144970004Y-102040946D02*
X142470004Y-104540946D01*
X142470004Y-104540946D02*
X142370004Y-104540946D01*
X144970004Y-102040946D02*
X142470004Y-99540946D01*
X142470004Y-99540946D02*
X142370004Y-99540946D01*
X145070004Y-102040946D02*
X145170004Y-102040946D01*
X158870004Y-104540946D02*
X158970004Y-104540946D01*
X158970004Y-104540946D02*
X161470004Y-107040946D01*
X154520004Y-104345946D02*
X158675004Y-104345946D01*
X158675004Y-104345946D02*
X158870004Y-104540946D01*
X154520004Y-104345946D02*
X154520004Y-105990946D01*
X154520004Y-105990946D02*
X153470004Y-107040946D01*
X153470004Y-107040946D02*
X153370004Y-107040946D01*
X157000000Y-105250000D02*
X158790946Y-107040946D01*
X158790946Y-107040946D02*
X158970004Y-107040946D01*
X154520004Y-103075946D02*
X156924054Y-103075946D01*
X156924054Y-103075946D02*
X157000000Y-103000000D01*
X158870004Y-99540946D02*
X158530004Y-99540946D01*
X158530004Y-99540946D02*
X154995004Y-103075946D01*
X154995004Y-103075946D02*
X154520004Y-103075946D01*
X158770004Y-99540946D02*
X158870004Y-99540946D01*
X146400000Y-104200000D02*
X145410950Y-104200000D01*
X145410950Y-104200000D02*
X145070004Y-104540946D01*
X147650011Y-104070939D02*
X147650011Y-104200000D01*
X149120004Y-103075946D02*
X148645004Y-103075946D01*
X148645004Y-103075946D02*
X147650011Y-104070939D01*
X150570004Y-107040946D02*
X150470004Y-107040946D01*
X142595004Y-107040946D02*
X142470004Y-107040946D01*
X150570004Y-107040946D02*
X150570004Y-104050946D01*
X150570004Y-104050946D02*
X149595004Y-103075946D01*
X149595004Y-103075946D02*
X149120004Y-103075946D01*
X145070004Y-104540946D02*
X144970004Y-104540946D01*
X144970004Y-104540946D02*
X142470004Y-107040946D01*
X145170004Y-99540946D02*
X145070004Y-99540946D01*
X146070004Y-100440946D02*
X145170004Y-99540946D01*
X146070004Y-100595006D02*
X146070004Y-100440946D01*
X149120004Y-101805946D02*
X147280944Y-101805946D01*
X147280944Y-101805946D02*
X146070004Y-100595006D01*
X148645004Y-101805946D02*
X149120004Y-101805946D01*
X147025001Y-103425949D02*
X148645004Y-101805946D01*
X147025001Y-105110949D02*
X147025001Y-103425949D01*
X145095004Y-107040946D02*
X147025001Y-105110949D01*
X144970004Y-107040946D02*
X145095004Y-107040946D01*
X164250000Y-101875000D02*
X163000000Y-103125000D01*
X163000000Y-103125000D02*
X163000000Y-107470952D01*
X162220952Y-108250000D02*
X157750000Y-108250000D01*
X163000000Y-107470952D02*
X162220952Y-108250000D01*
X164250000Y-101000000D02*
X164250000Y-101875000D01*
X157750000Y-108250000D02*
X156540946Y-107040946D01*
X156540946Y-107040946D02*
X156070004Y-107040946D01*
X156070004Y-107040946D02*
X156170004Y-107040946D01*
X166750000Y-101000000D02*
X169900000Y-101000000D01*
X169900000Y-101000000D02*
X170000000Y-101100000D01*
X148137358Y-107040946D02*
X147870004Y-107040946D01*
X149537370Y-108440958D02*
X148137358Y-107040946D01*
X157304547Y-108440958D02*
X149537370Y-108440958D01*
X157563600Y-108700011D02*
X157304547Y-108440958D01*
X162407352Y-108700011D02*
X157563600Y-108700011D01*
X162614348Y-108493015D02*
X162407352Y-108700011D01*
X171000000Y-109750000D02*
X169250000Y-108000000D01*
X172000000Y-109750000D02*
X171000000Y-109750000D01*
X163782681Y-108493015D02*
X162614348Y-108493015D01*
X169250000Y-108000000D02*
X164275696Y-108000000D01*
X164275696Y-108000000D02*
X163782681Y-108493015D01*
X177400000Y-109500000D02*
X174750000Y-109500000D01*
X174750000Y-109500000D02*
X174500000Y-109750000D01*
X170000000Y-87700000D02*
X166800000Y-87700000D01*
X166800000Y-87700000D02*
X166750000Y-87750000D01*
X147000000Y-94200000D02*
X156200000Y-94200000D01*
X156200000Y-94200000D02*
X156319662Y-94080338D01*
X163321978Y-89553022D02*
X163321978Y-92878022D01*
X164250000Y-88625000D02*
X163321978Y-89553022D01*
X164250000Y-87750000D02*
X164250000Y-88625000D01*
X142370004Y-92009946D02*
X143790054Y-92009946D01*
X143790054Y-92009946D02*
X143800000Y-92000000D01*
X142270004Y-92009946D02*
X142370004Y-92009946D01*
X177400000Y-96100000D02*
X172650000Y-96100000D01*
X172650000Y-96100000D02*
X172500000Y-96250000D01*
X161670004Y-92009946D02*
X161570004Y-92009946D01*
X170000000Y-96250000D02*
X165810058Y-96250000D01*
X165810058Y-96250000D02*
X162570004Y-93009946D01*
X162570004Y-93009946D02*
X162570004Y-92909946D01*
X162570004Y-92909946D02*
X161670004Y-92009946D01*
X161851004Y-92290946D02*
X161570004Y-92009946D01*
X142470004Y-94509946D02*
X143084948Y-94509946D01*
X143084948Y-94509946D02*
X144115948Y-95540946D01*
X144115948Y-95540946D02*
X146970004Y-95540946D01*
X146970004Y-95540946D02*
X147970004Y-95540946D01*
X142370004Y-94509946D02*
X142470004Y-94509946D01*
X145070004Y-92009946D02*
X144970004Y-92009946D01*
X144970004Y-92009946D02*
X142470004Y-94509946D01*
X144970004Y-92009946D02*
X142470004Y-89509946D01*
X142470004Y-89509946D02*
X142370004Y-89509946D01*
X161570004Y-94509946D02*
X161470004Y-94509946D01*
X161470004Y-94509946D02*
X160439004Y-95540946D01*
X160439004Y-95540946D02*
X155970004Y-95540946D01*
X158870004Y-92009946D02*
X158970004Y-92009946D01*
X158970004Y-92009946D02*
X161470004Y-94509946D01*
X161570004Y-89509946D02*
X161470004Y-89509946D01*
X161470004Y-89509946D02*
X158970004Y-92009946D01*
X148545004Y-89635946D02*
X148227504Y-89635946D01*
X148227504Y-89635946D02*
X147863450Y-90000000D01*
X147863450Y-90000000D02*
X146560058Y-90000000D01*
X146560058Y-90000000D02*
X146070004Y-89509946D01*
X146070004Y-89509946D02*
X145070004Y-89509946D01*
X148545004Y-89635946D02*
X148545004Y-88934946D01*
X148545004Y-88934946D02*
X150470004Y-87009946D01*
X150470004Y-87009946D02*
X150570004Y-87009946D01*
X143210058Y-87750000D02*
X143179058Y-87750000D01*
X143179058Y-87750000D02*
X142470004Y-87040946D01*
X145070004Y-89509946D02*
X144970004Y-89509946D01*
X144970004Y-89509946D02*
X143210058Y-87750000D01*
X146774999Y-92904951D02*
X146774999Y-91649265D01*
X145170004Y-94509946D02*
X146774999Y-92904951D01*
X147094054Y-90905946D02*
X147041949Y-90958051D01*
X148545004Y-90905946D02*
X147094054Y-90905946D01*
X147041949Y-91382315D02*
X147041949Y-90958051D01*
X146774999Y-91649265D02*
X147041949Y-91382315D01*
X145070004Y-94509946D02*
X145170004Y-94509946D01*
X144970004Y-87040946D02*
X145095004Y-87040946D01*
X145095004Y-87040946D02*
X147000000Y-88945942D01*
X147000000Y-88945942D02*
X147000000Y-89250000D01*
X158870004Y-89509946D02*
X156634948Y-89509946D01*
X156634948Y-89509946D02*
X155325002Y-88200000D01*
X155325002Y-88200000D02*
X154660058Y-88200000D01*
X154660058Y-88200000D02*
X153470004Y-87009946D01*
X153470004Y-87009946D02*
X153370004Y-87009946D01*
X158870004Y-89509946D02*
X158970004Y-89509946D01*
X158970004Y-89509946D02*
X161470004Y-87009946D01*
X158870004Y-89509946D02*
X157870004Y-89509946D01*
X157870004Y-89509946D02*
X156474004Y-90905946D01*
X156474004Y-90905946D02*
X154895004Y-90905946D01*
X157059139Y-92642158D02*
X157059139Y-92217894D01*
X157059139Y-92699081D02*
X157059139Y-92642158D01*
X158870004Y-94509946D02*
X157059139Y-92699081D01*
X157017191Y-92175946D02*
X157059139Y-92217894D01*
X154895004Y-92175946D02*
X157017191Y-92175946D01*
X158970004Y-87009946D02*
X158845004Y-87009946D01*
X157354950Y-88500000D02*
X157000000Y-88500000D01*
X158845004Y-87009946D02*
X157354950Y-88500000D01*
X150500000Y-84750000D02*
X150229950Y-84750000D01*
X150229950Y-84750000D02*
X147970004Y-87009946D01*
X147970004Y-87009946D02*
X147870004Y-87009946D01*
X139200000Y-89290585D02*
X139200000Y-88824264D01*
X127575002Y-95025002D02*
X132685000Y-95025002D01*
X132685000Y-95025002D02*
X134400000Y-93310002D01*
X134400000Y-93310002D02*
X134400000Y-91514999D01*
X134400000Y-91514999D02*
X134914999Y-91000000D01*
X134914999Y-91000000D02*
X137490585Y-91000000D01*
X137490585Y-91000000D02*
X139200000Y-89290585D01*
X126275000Y-92600000D02*
X126275000Y-93725000D01*
X139200000Y-88824264D02*
X139200000Y-88400000D01*
X126275000Y-93725000D02*
X127575002Y-95025002D01*
X148000000Y-84750000D02*
X142350000Y-84750000D01*
X142350000Y-84750000D02*
X140600000Y-86500000D01*
X140600000Y-86500000D02*
X140600000Y-87000000D01*
X156000000Y-84750000D02*
X156000000Y-86939942D01*
X156000000Y-86939942D02*
X156070004Y-87009946D01*
X152500000Y-84750000D02*
X153500000Y-84750000D01*
X151350000Y-83600000D02*
X152500000Y-84750000D01*
X133414985Y-95475013D02*
X135189998Y-93700000D01*
X125625000Y-92600000D02*
X125625000Y-93725000D01*
X125625000Y-93725000D02*
X127375013Y-95475013D01*
X127375013Y-95475013D02*
X133414985Y-95475013D01*
X140200000Y-88926996D02*
X140200000Y-87800000D01*
X139800000Y-86600000D02*
X142800000Y-83600000D01*
X142800000Y-83600000D02*
X151350000Y-83600000D01*
X137874998Y-91251998D02*
X140200000Y-88926996D01*
X137874998Y-92750006D02*
X137874998Y-91251998D01*
X136925004Y-93700000D02*
X137874998Y-92750006D01*
X135189998Y-93700000D02*
X136925004Y-93700000D01*
X139800000Y-87400000D02*
X139800000Y-86600000D01*
X140200000Y-87800000D02*
X139800000Y-87400000D01*
D36*
X128850000Y-90800000D02*
X131400000Y-90800000D01*
X138950001Y-95400001D02*
X139250000Y-95700000D01*
X138950000Y-91850000D02*
X138950001Y-95400001D01*
X121600000Y-90800000D02*
X124134315Y-90800000D01*
X121000000Y-91400000D02*
X121600000Y-90800000D01*
X121000000Y-94257236D02*
X121000000Y-91400000D01*
X119157236Y-96000000D02*
X119257236Y-96000000D01*
X124134315Y-90800000D02*
X124700000Y-90800000D01*
X119257236Y-96000000D02*
X121000000Y-94257236D01*
X156750001Y-93349999D02*
X156450002Y-93050000D01*
X157400000Y-94800000D02*
X157400000Y-93999998D01*
X157400000Y-93999998D02*
X156750001Y-93349999D01*
X144690946Y-97040946D02*
X143699999Y-96049999D01*
X144845004Y-97040946D02*
X144690946Y-97040946D01*
X143699999Y-96049999D02*
X143400000Y-95750000D01*
D35*
X144970004Y-97040946D02*
X144845004Y-97040946D01*
X121700000Y-86150000D02*
X122150000Y-86150000D01*
D36*
X122150000Y-86150000D02*
X123000000Y-87000000D01*
X119157236Y-96000000D02*
X119157236Y-96900000D01*
X119157236Y-96900000D02*
X117827236Y-98230000D01*
D35*
X117827236Y-98230000D02*
X117827236Y-98998500D01*
D36*
X146600000Y-97000000D02*
X147024264Y-97000000D01*
X147024264Y-97000000D02*
X147224264Y-96800000D01*
X157000000Y-96800000D02*
X157400000Y-96400000D01*
X147224264Y-96800000D02*
X157000000Y-96800000D01*
X156200000Y-90000000D02*
X155800000Y-89600000D01*
X155800000Y-89600000D02*
X154930950Y-89600000D01*
D35*
X154930950Y-89600000D02*
X154895004Y-89635946D01*
X154577504Y-89635946D02*
X154895004Y-89635946D01*
X158970004Y-97040946D02*
X158040946Y-97040946D01*
X158040946Y-97040946D02*
X157400000Y-96400000D01*
D36*
X151800000Y-100800000D02*
X150200000Y-99200000D01*
X150200000Y-99200000D02*
X146800000Y-99200000D01*
X146800000Y-99200000D02*
X146600000Y-99000000D01*
X146600000Y-97000000D02*
X145010950Y-97000000D01*
D35*
X145010950Y-97000000D02*
X144970004Y-97040946D01*
D36*
X151400000Y-105200000D02*
X151400000Y-102400000D01*
X149120004Y-104345946D02*
X149120004Y-105120004D01*
D35*
X149120004Y-105120004D02*
X149200000Y-105200000D01*
X154859058Y-89600000D02*
X154895004Y-89635946D01*
X149000000Y-104465950D02*
X149120004Y-104345946D01*
X173895406Y-82545406D02*
X173604594Y-82545406D01*
X173604594Y-82545406D02*
X172150000Y-84000000D01*
M02*
